(['Z:\\home\\riccardo\\Documents\\informatica\\pc\\programmi_python\\dama_grafica\\main.py'],
 ['Z:\\home\\riccardo\\Documents\\informatica\\pc\\programmi_python\\dama_grafica',
  'Z:\\home\\riccardo\\Documents\\informatica\\pc\\programmi_python\\dama_grafica'],
 ['typing', 'PyQt5', 'sys', 'os', 'time', 'random', 'math', 'codecs'],
 ['C:\\users\\riccardo\\Local Settings\\Application '
  'Data\\Programs\\Python\\Python39-32\\lib\\site-packages\\_pyinstaller_hooks_contrib\\hooks\\stdhooks',
  'C:\\users\\riccardo\\Local Settings\\Application '
  'Data\\Programs\\Python\\Python39-32\\lib\\site-packages\\_pyinstaller_hooks_contrib\\hooks\\stdhooks\\__pycache__',
  'C:\\users\\riccardo\\Local Settings\\Application '
  'Data\\Programs\\Python\\Python39-32\\lib\\site-packages\\_pyinstaller_hooks_contrib\\hooks\\rthooks',
  'C:\\users\\riccardo\\Local Settings\\Application '
  'Data\\Programs\\Python\\Python39-32\\lib\\site-packages\\_pyinstaller_hooks_contrib\\hooks\\rthooks\\__pycache__',
  'C:\\users\\riccardo\\Local Settings\\Application '
  'Data\\Programs\\Python\\Python39-32\\lib\\site-packages\\_pyinstaller_hooks_contrib\\hooks'],
 {},
 [],
 [],
 False,
 False,
 False,
 '3.9.4 (tags/v3.9.4:1f2e308, Apr  6 2021, 13:22:44) [MSC v.1928 32 bit '
 '(Intel)]',
 [('pyi_rth_pkgutil',
   'C:\\users\\riccardo\\Local Settings\\Application '
   'Data\\Programs\\Python\\Python39-32\\Lib\\site-packages\\PyInstaller\\hooks\\rthooks\\pyi_rth_pkgutil.py',
   'PYSOURCE'),
  ('pyi_rth_multiprocessing',
   'C:\\users\\riccardo\\Local Settings\\Application '
   'Data\\Programs\\Python\\Python39-32\\Lib\\site-packages\\PyInstaller\\hooks\\rthooks\\pyi_rth_multiprocessing.py',
   'PYSOURCE'),
  ('pyi_rth_inspect',
   'C:\\users\\riccardo\\Local Settings\\Application '
   'Data\\Programs\\Python\\Python39-32\\Lib\\site-packages\\PyInstaller\\hooks\\rthooks\\pyi_rth_inspect.py',
   'PYSOURCE'),
  ('pyi_rth_pyqt5',
   'C:\\users\\riccardo\\Local Settings\\Application '
   'Data\\Programs\\Python\\Python39-32\\Lib\\site-packages\\PyInstaller\\hooks\\rthooks\\pyi_rth_pyqt5.py',
   'PYSOURCE'),
  ('main',
   'Z:\\home\\riccardo\\Documents\\informatica\\pc\\programmi_python\\dama_grafica\\main.py',
   'PYSOURCE')],
 [('inspect',
   'C:\\users\\riccardo\\Local Settings\\Application '
   'Data\\Programs\\Python\\Python39-32\\lib\\inspect.py',
   'PYMODULE'),
  ('importlib',
   'C:\\users\\riccardo\\Local Settings\\Application '
   'Data\\Programs\\Python\\Python39-32\\lib\\importlib\\__init__.py',
   'PYMODULE'),
  ('importlib._bootstrap_external',
   'C:\\users\\riccardo\\Local Settings\\Application '
   'Data\\Programs\\Python\\Python39-32\\lib\\importlib\\_bootstrap_external.py',
   'PYMODULE'),
  ('importlib.metadata',
   'C:\\users\\riccardo\\Local Settings\\Application '
   'Data\\Programs\\Python\\Python39-32\\lib\\importlib\\metadata.py',
   'PYMODULE'),
  ('importlib.abc',
   'C:\\users\\riccardo\\Local Settings\\Application '
   'Data\\Programs\\Python\\Python39-32\\lib\\importlib\\abc.py',
   'PYMODULE'),
  ('contextlib',
   'C:\\users\\riccardo\\Local Settings\\Application '
   'Data\\Programs\\Python\\Python39-32\\lib\\contextlib.py',
   'PYMODULE'),
  ('configparser',
   'C:\\users\\riccardo\\Local Settings\\Application '
   'Data\\Programs\\Python\\Python39-32\\lib\\configparser.py',
   'PYMODULE'),
  ('posixpath',
   'C:\\users\\riccardo\\Local Settings\\Application '
   'Data\\Programs\\Python\\Python39-32\\lib\\posixpath.py',
   'PYMODULE'),
  ('genericpath',
   'C:\\users\\riccardo\\Local Settings\\Application '
   'Data\\Programs\\Python\\Python39-32\\lib\\genericpath.py',
   'PYMODULE'),
  ('stat',
   'C:\\users\\riccardo\\Local Settings\\Application '
   'Data\\Programs\\Python\\Python39-32\\lib\\stat.py',
   'PYMODULE'),
  ('zipfile',
   'C:\\users\\riccardo\\Local Settings\\Application '
   'Data\\Programs\\Python\\Python39-32\\lib\\zipfile.py',
   'PYMODULE'),
  ('py_compile',
   'C:\\users\\riccardo\\Local Settings\\Application '
   'Data\\Programs\\Python\\Python39-32\\lib\\py_compile.py',
   'PYMODULE'),
  ('ntpath',
   'C:\\users\\riccardo\\Local Settings\\Application '
   'Data\\Programs\\Python\\Python39-32\\lib\\ntpath.py',
   'PYMODULE'),
  ('string',
   'C:\\users\\riccardo\\Local Settings\\Application '
   'Data\\Programs\\Python\\Python39-32\\lib\\string.py',
   'PYMODULE'),
  ('lzma',
   'C:\\users\\riccardo\\Local Settings\\Application '
   'Data\\Programs\\Python\\Python39-32\\lib\\lzma.py',
   'PYMODULE'),
  ('_compression',
   'C:\\users\\riccardo\\Local Settings\\Application '
   'Data\\Programs\\Python\\Python39-32\\lib\\_compression.py',
   'PYMODULE'),
  ('bz2',
   'C:\\users\\riccardo\\Local Settings\\Application '
   'Data\\Programs\\Python\\Python39-32\\lib\\bz2.py',
   'PYMODULE'),
  ('threading',
   'C:\\users\\riccardo\\Local Settings\\Application '
   'Data\\Programs\\Python\\Python39-32\\lib\\threading.py',
   'PYMODULE'),
  ('_threading_local',
   'C:\\users\\riccardo\\Local Settings\\Application '
   'Data\\Programs\\Python\\Python39-32\\lib\\_threading_local.py',
   'PYMODULE'),
  ('struct',
   'C:\\users\\riccardo\\Local Settings\\Application '
   'Data\\Programs\\Python\\Python39-32\\lib\\struct.py',
   'PYMODULE'),
  ('shutil',
   'C:\\users\\riccardo\\Local Settings\\Application '
   'Data\\Programs\\Python\\Python39-32\\lib\\shutil.py',
   'PYMODULE'),
  ('tarfile',
   'C:\\users\\riccardo\\Local Settings\\Application '
   'Data\\Programs\\Python\\Python39-32\\lib\\tarfile.py',
   'PYMODULE'),
  ('gzip',
   'C:\\users\\riccardo\\Local Settings\\Application '
   'Data\\Programs\\Python\\Python39-32\\lib\\gzip.py',
   'PYMODULE'),
  ('copy',
   'C:\\users\\riccardo\\Local Settings\\Application '
   'Data\\Programs\\Python\\Python39-32\\lib\\copy.py',
   'PYMODULE'),
  ('fnmatch',
   'C:\\users\\riccardo\\Local Settings\\Application '
   'Data\\Programs\\Python\\Python39-32\\lib\\fnmatch.py',
   'PYMODULE'),
  ('importlib.util',
   'C:\\users\\riccardo\\Local Settings\\Application '
   'Data\\Programs\\Python\\Python39-32\\lib\\importlib\\util.py',
   'PYMODULE'),
  ('pathlib',
   'C:\\users\\riccardo\\Local Settings\\Application '
   'Data\\Programs\\Python\\Python39-32\\lib\\pathlib.py',
   'PYMODULE'),
  ('urllib.parse',
   'C:\\users\\riccardo\\Local Settings\\Application '
   'Data\\Programs\\Python\\Python39-32\\lib\\urllib\\parse.py',
   'PYMODULE'),
  ('urllib',
   'C:\\users\\riccardo\\Local Settings\\Application '
   'Data\\Programs\\Python\\Python39-32\\lib\\urllib\\__init__.py',
   'PYMODULE'),
  ('email',
   'C:\\users\\riccardo\\Local Settings\\Application '
   'Data\\Programs\\Python\\Python39-32\\lib\\email\\__init__.py',
   'PYMODULE'),
  ('email.parser',
   'C:\\users\\riccardo\\Local Settings\\Application '
   'Data\\Programs\\Python\\Python39-32\\lib\\email\\parser.py',
   'PYMODULE'),
  ('email._policybase',
   'C:\\users\\riccardo\\Local Settings\\Application '
   'Data\\Programs\\Python\\Python39-32\\lib\\email\\_policybase.py',
   'PYMODULE'),
  ('email.utils',
   'C:\\users\\riccardo\\Local Settings\\Application '
   'Data\\Programs\\Python\\Python39-32\\lib\\email\\utils.py',
   'PYMODULE'),
  ('email._parseaddr',
   'C:\\users\\riccardo\\Local Settings\\Application '
   'Data\\Programs\\Python\\Python39-32\\lib\\email\\_parseaddr.py',
   'PYMODULE'),
  ('calendar',
   'C:\\users\\riccardo\\Local Settings\\Application '
   'Data\\Programs\\Python\\Python39-32\\lib\\calendar.py',
   'PYMODULE'),
  ('datetime',
   'C:\\users\\riccardo\\Local Settings\\Application '
   'Data\\Programs\\Python\\Python39-32\\lib\\datetime.py',
   'PYMODULE'),
  ('_strptime',
   'C:\\users\\riccardo\\Local Settings\\Application '
   'Data\\Programs\\Python\\Python39-32\\lib\\_strptime.py',
   'PYMODULE'),
  ('socket',
   'C:\\users\\riccardo\\Local Settings\\Application '
   'Data\\Programs\\Python\\Python39-32\\lib\\socket.py',
   'PYMODULE'),
  ('selectors',
   'C:\\users\\riccardo\\Local Settings\\Application '
   'Data\\Programs\\Python\\Python39-32\\lib\\selectors.py',
   'PYMODULE'),
  ('email.feedparser',
   'C:\\users\\riccardo\\Local Settings\\Application '
   'Data\\Programs\\Python\\Python39-32\\lib\\email\\feedparser.py',
   'PYMODULE'),
  ('email.message',
   'C:\\users\\riccardo\\Local Settings\\Application '
   'Data\\Programs\\Python\\Python39-32\\lib\\email\\message.py',
   'PYMODULE'),
  ('email.policy',
   'C:\\users\\riccardo\\Local Settings\\Application '
   'Data\\Programs\\Python\\Python39-32\\lib\\email\\policy.py',
   'PYMODULE'),
  ('email.contentmanager',
   'C:\\users\\riccardo\\Local Settings\\Application '
   'Data\\Programs\\Python\\Python39-32\\lib\\email\\contentmanager.py',
   'PYMODULE'),
  ('email.quoprimime',
   'C:\\users\\riccardo\\Local Settings\\Application '
   'Data\\Programs\\Python\\Python39-32\\lib\\email\\quoprimime.py',
   'PYMODULE'),
  ('email.headerregistry',
   'C:\\users\\riccardo\\Local Settings\\Application '
   'Data\\Programs\\Python\\Python39-32\\lib\\email\\headerregistry.py',
   'PYMODULE'),
  ('email.iterators',
   'C:\\users\\riccardo\\Local Settings\\Application '
   'Data\\Programs\\Python\\Python39-32\\lib\\email\\iterators.py',
   'PYMODULE'),
  ('email.generator',
   'C:\\users\\riccardo\\Local Settings\\Application '
   'Data\\Programs\\Python\\Python39-32\\lib\\email\\generator.py',
   'PYMODULE'),
  ('email._encoded_words',
   'C:\\users\\riccardo\\Local Settings\\Application '
   'Data\\Programs\\Python\\Python39-32\\lib\\email\\_encoded_words.py',
   'PYMODULE'),
  ('base64',
   'C:\\users\\riccardo\\Local Settings\\Application '
   'Data\\Programs\\Python\\Python39-32\\lib\\base64.py',
   'PYMODULE'),
  ('getopt',
   'C:\\users\\riccardo\\Local Settings\\Application '
   'Data\\Programs\\Python\\Python39-32\\lib\\getopt.py',
   'PYMODULE'),
  ('gettext',
   'C:\\users\\riccardo\\Local Settings\\Application '
   'Data\\Programs\\Python\\Python39-32\\lib\\gettext.py',
   'PYMODULE'),
  ('quopri',
   'C:\\users\\riccardo\\Local Settings\\Application '
   'Data\\Programs\\Python\\Python39-32\\lib\\quopri.py',
   'PYMODULE'),
  ('uu',
   'C:\\users\\riccardo\\Local Settings\\Application '
   'Data\\Programs\\Python\\Python39-32\\lib\\uu.py',
   'PYMODULE'),
  ('optparse',
   'C:\\users\\riccardo\\Local Settings\\Application '
   'Data\\Programs\\Python\\Python39-32\\lib\\optparse.py',
   'PYMODULE'),
  ('textwrap',
   'C:\\users\\riccardo\\Local Settings\\Application '
   'Data\\Programs\\Python\\Python39-32\\lib\\textwrap.py',
   'PYMODULE'),
  ('email._header_value_parser',
   'C:\\users\\riccardo\\Local Settings\\Application '
   'Data\\Programs\\Python\\Python39-32\\lib\\email\\_header_value_parser.py',
   'PYMODULE'),
  ('email.header',
   'C:\\users\\riccardo\\Local Settings\\Application '
   'Data\\Programs\\Python\\Python39-32\\lib\\email\\header.py',
   'PYMODULE'),
  ('email.base64mime',
   'C:\\users\\riccardo\\Local Settings\\Application '
   'Data\\Programs\\Python\\Python39-32\\lib\\email\\base64mime.py',
   'PYMODULE'),
  ('email.charset',
   'C:\\users\\riccardo\\Local Settings\\Application '
   'Data\\Programs\\Python\\Python39-32\\lib\\email\\charset.py',
   'PYMODULE'),
  ('email.encoders',
   'C:\\users\\riccardo\\Local Settings\\Application '
   'Data\\Programs\\Python\\Python39-32\\lib\\email\\encoders.py',
   'PYMODULE'),
  ('email.errors',
   'C:\\users\\riccardo\\Local Settings\\Application '
   'Data\\Programs\\Python\\Python39-32\\lib\\email\\errors.py',
   'PYMODULE'),
  ('csv',
   'C:\\users\\riccardo\\Local Settings\\Application '
   'Data\\Programs\\Python\\Python39-32\\lib\\csv.py',
   'PYMODULE'),
  ('importlib._bootstrap',
   'C:\\users\\riccardo\\Local Settings\\Application '
   'Data\\Programs\\Python\\Python39-32\\lib\\importlib\\_bootstrap.py',
   'PYMODULE'),
  ('argparse',
   'C:\\users\\riccardo\\Local Settings\\Application '
   'Data\\Programs\\Python\\Python39-32\\lib\\argparse.py',
   'PYMODULE'),
  ('token',
   'C:\\users\\riccardo\\Local Settings\\Application '
   'Data\\Programs\\Python\\Python39-32\\lib\\token.py',
   'PYMODULE'),
  ('tokenize',
   'C:\\users\\riccardo\\Local Settings\\Application '
   'Data\\Programs\\Python\\Python39-32\\lib\\tokenize.py',
   'PYMODULE'),
  ('importlib.machinery',
   'C:\\users\\riccardo\\Local Settings\\Application '
   'Data\\Programs\\Python\\Python39-32\\lib\\importlib\\machinery.py',
   'PYMODULE'),
  ('dis',
   'C:\\users\\riccardo\\Local Settings\\Application '
   'Data\\Programs\\Python\\Python39-32\\lib\\dis.py',
   'PYMODULE'),
  ('opcode',
   'C:\\users\\riccardo\\Local Settings\\Application '
   'Data\\Programs\\Python\\Python39-32\\lib\\opcode.py',
   'PYMODULE'),
  ('ast',
   'C:\\users\\riccardo\\Local Settings\\Application '
   'Data\\Programs\\Python\\Python39-32\\lib\\ast.py',
   'PYMODULE'),
  ('multiprocessing.popen_spawn_posix',
   'C:\\users\\riccardo\\Local Settings\\Application '
   'Data\\Programs\\Python\\Python39-32\\lib\\multiprocessing\\popen_spawn_posix.py',
   'PYMODULE'),
  ('multiprocessing.resource_tracker',
   'C:\\users\\riccardo\\Local Settings\\Application '
   'Data\\Programs\\Python\\Python39-32\\lib\\multiprocessing\\resource_tracker.py',
   'PYMODULE'),
  ('signal',
   'C:\\users\\riccardo\\Local Settings\\Application '
   'Data\\Programs\\Python\\Python39-32\\lib\\signal.py',
   'PYMODULE'),
  ('multiprocessing.util',
   'C:\\users\\riccardo\\Local Settings\\Application '
   'Data\\Programs\\Python\\Python39-32\\lib\\multiprocessing\\util.py',
   'PYMODULE'),
  ('multiprocessing.forkserver',
   'C:\\users\\riccardo\\Local Settings\\Application '
   'Data\\Programs\\Python\\Python39-32\\lib\\multiprocessing\\forkserver.py',
   'PYMODULE'),
  ('multiprocessing.connection',
   'C:\\users\\riccardo\\Local Settings\\Application '
   'Data\\Programs\\Python\\Python39-32\\lib\\multiprocessing\\connection.py',
   'PYMODULE'),
  ('multiprocessing.resource_sharer',
   'C:\\users\\riccardo\\Local Settings\\Application '
   'Data\\Programs\\Python\\Python39-32\\lib\\multiprocessing\\resource_sharer.py',
   'PYMODULE'),
  ('xmlrpc.client',
   'C:\\users\\riccardo\\Local Settings\\Application '
   'Data\\Programs\\Python\\Python39-32\\lib\\xmlrpc\\client.py',
   'PYMODULE'),
  ('xmlrpc',
   'C:\\users\\riccardo\\Local Settings\\Application '
   'Data\\Programs\\Python\\Python39-32\\lib\\xmlrpc\\__init__.py',
   'PYMODULE'),
  ('xml.parsers.expat',
   'C:\\users\\riccardo\\Local Settings\\Application '
   'Data\\Programs\\Python\\Python39-32\\lib\\xml\\parsers\\expat.py',
   'PYMODULE'),
  ('xml.parsers',
   'C:\\users\\riccardo\\Local Settings\\Application '
   'Data\\Programs\\Python\\Python39-32\\lib\\xml\\parsers\\__init__.py',
   'PYMODULE'),
  ('xml',
   'C:\\users\\riccardo\\Local Settings\\Application '
   'Data\\Programs\\Python\\Python39-32\\lib\\xml\\__init__.py',
   'PYMODULE'),
  ('xml.sax.expatreader',
   'C:\\users\\riccardo\\Local Settings\\Application '
   'Data\\Programs\\Python\\Python39-32\\lib\\xml\\sax\\expatreader.py',
   'PYMODULE'),
  ('xml.sax.saxutils',
   'C:\\users\\riccardo\\Local Settings\\Application '
   'Data\\Programs\\Python\\Python39-32\\lib\\xml\\sax\\saxutils.py',
   'PYMODULE'),
  ('urllib.request',
   'C:\\users\\riccardo\\Local Settings\\Application '
   'Data\\Programs\\Python\\Python39-32\\lib\\urllib\\request.py',
   'PYMODULE'),
  ('getpass',
   'C:\\users\\riccardo\\Local Settings\\Application '
   'Data\\Programs\\Python\\Python39-32\\lib\\getpass.py',
   'PYMODULE'),
  ('nturl2path',
   'C:\\users\\riccardo\\Local Settings\\Application '
   'Data\\Programs\\Python\\Python39-32\\lib\\nturl2path.py',
   'PYMODULE'),
  ('ftplib',
   'C:\\users\\riccardo\\Local Settings\\Application '
   'Data\\Programs\\Python\\Python39-32\\lib\\ftplib.py',
   'PYMODULE'),
  ('netrc',
   'C:\\users\\riccardo\\Local Settings\\Application '
   'Data\\Programs\\Python\\Python39-32\\lib\\netrc.py',
   'PYMODULE'),
  ('shlex',
   'C:\\users\\riccardo\\Local Settings\\Application '
   'Data\\Programs\\Python\\Python39-32\\lib\\shlex.py',
   'PYMODULE'),
  ('mimetypes',
   'C:\\users\\riccardo\\Local Settings\\Application '
   'Data\\Programs\\Python\\Python39-32\\lib\\mimetypes.py',
   'PYMODULE'),
  ('http.cookiejar',
   'C:\\users\\riccardo\\Local Settings\\Application '
   'Data\\Programs\\Python\\Python39-32\\lib\\http\\cookiejar.py',
   'PYMODULE'),
  ('http',
   'C:\\users\\riccardo\\Local Settings\\Application '
   'Data\\Programs\\Python\\Python39-32\\lib\\http\\__init__.py',
   'PYMODULE'),
  ('ssl',
   'C:\\users\\riccardo\\Local Settings\\Application '
   'Data\\Programs\\Python\\Python39-32\\lib\\ssl.py',
   'PYMODULE'),
  ('urllib.response',
   'C:\\users\\riccardo\\Local Settings\\Application '
   'Data\\Programs\\Python\\Python39-32\\lib\\urllib\\response.py',
   'PYMODULE'),
  ('urllib.error',
   'C:\\users\\riccardo\\Local Settings\\Application '
   'Data\\Programs\\Python\\Python39-32\\lib\\urllib\\error.py',
   'PYMODULE'),
  ('hashlib',
   'C:\\users\\riccardo\\Local Settings\\Application '
   'Data\\Programs\\Python\\Python39-32\\lib\\hashlib.py',
   'PYMODULE'),
  ('bisect',
   'C:\\users\\riccardo\\Local Settings\\Application '
   'Data\\Programs\\Python\\Python39-32\\lib\\bisect.py',
   'PYMODULE'),
  ('xml.sax',
   'C:\\users\\riccardo\\Local Settings\\Application '
   'Data\\Programs\\Python\\Python39-32\\lib\\xml\\sax\\__init__.py',
   'PYMODULE'),
  ('xml.sax.handler',
   'C:\\users\\riccardo\\Local Settings\\Application '
   'Data\\Programs\\Python\\Python39-32\\lib\\xml\\sax\\handler.py',
   'PYMODULE'),
  ('xml.sax._exceptions',
   'C:\\users\\riccardo\\Local Settings\\Application '
   'Data\\Programs\\Python\\Python39-32\\lib\\xml\\sax\\_exceptions.py',
   'PYMODULE'),
  ('xml.sax.xmlreader',
   'C:\\users\\riccardo\\Local Settings\\Application '
   'Data\\Programs\\Python\\Python39-32\\lib\\xml\\sax\\xmlreader.py',
   'PYMODULE'),
  ('http.client',
   'C:\\users\\riccardo\\Local Settings\\Application '
   'Data\\Programs\\Python\\Python39-32\\lib\\http\\client.py',
   'PYMODULE'),
  ('decimal',
   'C:\\users\\riccardo\\Local Settings\\Application '
   'Data\\Programs\\Python\\Python39-32\\lib\\decimal.py',
   'PYMODULE'),
  ('_pydecimal',
   'C:\\users\\riccardo\\Local Settings\\Application '
   'Data\\Programs\\Python\\Python39-32\\lib\\_pydecimal.py',
   'PYMODULE'),
  ('contextvars',
   'C:\\users\\riccardo\\Local Settings\\Application '
   'Data\\Programs\\Python\\Python39-32\\lib\\contextvars.py',
   'PYMODULE'),
  ('numbers',
   'C:\\users\\riccardo\\Local Settings\\Application '
   'Data\\Programs\\Python\\Python39-32\\lib\\numbers.py',
   'PYMODULE'),
  ('hmac',
   'C:\\users\\riccardo\\Local Settings\\Application '
   'Data\\Programs\\Python\\Python39-32\\lib\\hmac.py',
   'PYMODULE'),
  ('tempfile',
   'C:\\users\\riccardo\\Local Settings\\Application '
   'Data\\Programs\\Python\\Python39-32\\lib\\tempfile.py',
   'PYMODULE'),
  ('logging',
   'C:\\users\\riccardo\\Local Settings\\Application '
   'Data\\Programs\\Python\\Python39-32\\lib\\logging\\__init__.py',
   'PYMODULE'),
  ('pickle',
   'C:\\users\\riccardo\\Local Settings\\Application '
   'Data\\Programs\\Python\\Python39-32\\lib\\pickle.py',
   'PYMODULE'),
  ('pprint',
   'C:\\users\\riccardo\\Local Settings\\Application '
   'Data\\Programs\\Python\\Python39-32\\lib\\pprint.py',
   'PYMODULE'),
  ('doctest',
   'C:\\users\\riccardo\\Local Settings\\Application '
   'Data\\Programs\\Python\\Python39-32\\lib\\doctest.py',
   'PYMODULE'),
  ('unittest',
   'C:\\users\\riccardo\\Local Settings\\Application '
   'Data\\Programs\\Python\\Python39-32\\lib\\unittest\\__init__.py',
   'PYMODULE'),
  ('unittest.async_case',
   'C:\\users\\riccardo\\Local Settings\\Application '
   'Data\\Programs\\Python\\Python39-32\\lib\\unittest\\async_case.py',
   'PYMODULE'),
  ('asyncio',
   'C:\\users\\riccardo\\Local Settings\\Application '
   'Data\\Programs\\Python\\Python39-32\\lib\\asyncio\\__init__.py',
   'PYMODULE'),
  ('asyncio.unix_events',
   'C:\\users\\riccardo\\Local Settings\\Application '
   'Data\\Programs\\Python\\Python39-32\\lib\\asyncio\\unix_events.py',
   'PYMODULE'),
  ('asyncio.log',
   'C:\\users\\riccardo\\Local Settings\\Application '
   'Data\\Programs\\Python\\Python39-32\\lib\\asyncio\\log.py',
   'PYMODULE'),
  ('asyncio.windows_events',
   'C:\\users\\riccardo\\Local Settings\\Application '
   'Data\\Programs\\Python\\Python39-32\\lib\\asyncio\\windows_events.py',
   'PYMODULE'),
  ('asyncio.windows_utils',
   'C:\\users\\riccardo\\Local Settings\\Application '
   'Data\\Programs\\Python\\Python39-32\\lib\\asyncio\\windows_utils.py',
   'PYMODULE'),
  ('asyncio.selector_events',
   'C:\\users\\riccardo\\Local Settings\\Application '
   'Data\\Programs\\Python\\Python39-32\\lib\\asyncio\\selector_events.py',
   'PYMODULE'),
  ('asyncio.proactor_events',
   'C:\\users\\riccardo\\Local Settings\\Application '
   'Data\\Programs\\Python\\Python39-32\\lib\\asyncio\\proactor_events.py',
   'PYMODULE'),
  ('asyncio.base_subprocess',
   'C:\\users\\riccardo\\Local Settings\\Application '
   'Data\\Programs\\Python\\Python39-32\\lib\\asyncio\\base_subprocess.py',
   'PYMODULE'),
  ('asyncio.threads',
   'C:\\users\\riccardo\\Local Settings\\Application '
   'Data\\Programs\\Python\\Python39-32\\lib\\asyncio\\threads.py',
   'PYMODULE'),
  ('asyncio.subprocess',
   'C:\\users\\riccardo\\Local Settings\\Application '
   'Data\\Programs\\Python\\Python39-32\\lib\\asyncio\\subprocess.py',
   'PYMODULE'),
  ('asyncio.streams',
   'C:\\users\\riccardo\\Local Settings\\Application '
   'Data\\Programs\\Python\\Python39-32\\lib\\asyncio\\streams.py',
   'PYMODULE'),
  ('asyncio.queues',
   'C:\\users\\riccardo\\Local Settings\\Application '
   'Data\\Programs\\Python\\Python39-32\\lib\\asyncio\\queues.py',
   'PYMODULE'),
  ('asyncio.runners',
   'C:\\users\\riccardo\\Local Settings\\Application '
   'Data\\Programs\\Python\\Python39-32\\lib\\asyncio\\runners.py',
   'PYMODULE'),
  ('asyncio.events',
   'C:\\users\\riccardo\\Local Settings\\Application '
   'Data\\Programs\\Python\\Python39-32\\lib\\asyncio\\events.py',
   'PYMODULE'),
  ('asyncio.base_events',
   'C:\\users\\riccardo\\Local Settings\\Application '
   'Data\\Programs\\Python\\Python39-32\\lib\\asyncio\\base_events.py',
   'PYMODULE'),
  ('concurrent.futures',
   'C:\\users\\riccardo\\Local Settings\\Application '
   'Data\\Programs\\Python\\Python39-32\\lib\\concurrent\\futures\\__init__.py',
   'PYMODULE'),
  ('concurrent.futures.thread',
   'C:\\users\\riccardo\\Local Settings\\Application '
   'Data\\Programs\\Python\\Python39-32\\lib\\concurrent\\futures\\thread.py',
   'PYMODULE'),
  ('queue',
   'C:\\users\\riccardo\\Local Settings\\Application '
   'Data\\Programs\\Python\\Python39-32\\lib\\queue.py',
   'PYMODULE'),
  ('concurrent.futures.process',
   'C:\\users\\riccardo\\Local Settings\\Application '
   'Data\\Programs\\Python\\Python39-32\\lib\\concurrent\\futures\\process.py',
   'PYMODULE'),
  ('multiprocessing.queues',
   'C:\\users\\riccardo\\Local Settings\\Application '
   'Data\\Programs\\Python\\Python39-32\\lib\\multiprocessing\\queues.py',
   'PYMODULE'),
  ('multiprocessing.synchronize',
   'C:\\users\\riccardo\\Local Settings\\Application '
   'Data\\Programs\\Python\\Python39-32\\lib\\multiprocessing\\synchronize.py',
   'PYMODULE'),
  ('multiprocessing.heap',
   'C:\\users\\riccardo\\Local Settings\\Application '
   'Data\\Programs\\Python\\Python39-32\\lib\\multiprocessing\\heap.py',
   'PYMODULE'),
  ('concurrent.futures._base',
   'C:\\users\\riccardo\\Local Settings\\Application '
   'Data\\Programs\\Python\\Python39-32\\lib\\concurrent\\futures\\_base.py',
   'PYMODULE'),
  ('concurrent',
   'C:\\users\\riccardo\\Local Settings\\Application '
   'Data\\Programs\\Python\\Python39-32\\lib\\concurrent\\__init__.py',
   'PYMODULE'),
  ('asyncio.trsock',
   'C:\\users\\riccardo\\Local Settings\\Application '
   'Data\\Programs\\Python\\Python39-32\\lib\\asyncio\\trsock.py',
   'PYMODULE'),
  ('asyncio.staggered',
   'C:\\users\\riccardo\\Local Settings\\Application '
   'Data\\Programs\\Python\\Python39-32\\lib\\asyncio\\staggered.py',
   'PYMODULE'),
  ('asyncio.tasks',
   'C:\\users\\riccardo\\Local Settings\\Application '
   'Data\\Programs\\Python\\Python39-32\\lib\\asyncio\\tasks.py',
   'PYMODULE'),
  ('asyncio.base_tasks',
   'C:\\users\\riccardo\\Local Settings\\Application '
   'Data\\Programs\\Python\\Python39-32\\lib\\asyncio\\base_tasks.py',
   'PYMODULE'),
  ('asyncio.locks',
   'C:\\users\\riccardo\\Local Settings\\Application '
   'Data\\Programs\\Python\\Python39-32\\lib\\asyncio\\locks.py',
   'PYMODULE'),
  ('asyncio.sslproto',
   'C:\\users\\riccardo\\Local Settings\\Application '
   'Data\\Programs\\Python\\Python39-32\\lib\\asyncio\\sslproto.py',
   'PYMODULE'),
  ('asyncio.transports',
   'C:\\users\\riccardo\\Local Settings\\Application '
   'Data\\Programs\\Python\\Python39-32\\lib\\asyncio\\transports.py',
   'PYMODULE'),
  ('asyncio.protocols',
   'C:\\users\\riccardo\\Local Settings\\Application '
   'Data\\Programs\\Python\\Python39-32\\lib\\asyncio\\protocols.py',
   'PYMODULE'),
  ('asyncio.futures',
   'C:\\users\\riccardo\\Local Settings\\Application '
   'Data\\Programs\\Python\\Python39-32\\lib\\asyncio\\futures.py',
   'PYMODULE'),
  ('asyncio.exceptions',
   'C:\\users\\riccardo\\Local Settings\\Application '
   'Data\\Programs\\Python\\Python39-32\\lib\\asyncio\\exceptions.py',
   'PYMODULE'),
  ('asyncio.coroutines',
   'C:\\users\\riccardo\\Local Settings\\Application '
   'Data\\Programs\\Python\\Python39-32\\lib\\asyncio\\coroutines.py',
   'PYMODULE'),
  ('asyncio.base_futures',
   'C:\\users\\riccardo\\Local Settings\\Application '
   'Data\\Programs\\Python\\Python39-32\\lib\\asyncio\\base_futures.py',
   'PYMODULE'),
  ('asyncio.format_helpers',
   'C:\\users\\riccardo\\Local Settings\\Application '
   'Data\\Programs\\Python\\Python39-32\\lib\\asyncio\\format_helpers.py',
   'PYMODULE'),
  ('asyncio.constants',
   'C:\\users\\riccardo\\Local Settings\\Application '
   'Data\\Programs\\Python\\Python39-32\\lib\\asyncio\\constants.py',
   'PYMODULE'),
  ('unittest.signals',
   'C:\\users\\riccardo\\Local Settings\\Application '
   'Data\\Programs\\Python\\Python39-32\\lib\\unittest\\signals.py',
   'PYMODULE'),
  ('unittest.main',
   'C:\\users\\riccardo\\Local Settings\\Application '
   'Data\\Programs\\Python\\Python39-32\\lib\\unittest\\main.py',
   'PYMODULE'),
  ('unittest.runner',
   'C:\\users\\riccardo\\Local Settings\\Application '
   'Data\\Programs\\Python\\Python39-32\\lib\\unittest\\runner.py',
   'PYMODULE'),
  ('unittest.loader',
   'C:\\users\\riccardo\\Local Settings\\Application '
   'Data\\Programs\\Python\\Python39-32\\lib\\unittest\\loader.py',
   'PYMODULE'),
  ('unittest.suite',
   'C:\\users\\riccardo\\Local Settings\\Application '
   'Data\\Programs\\Python\\Python39-32\\lib\\unittest\\suite.py',
   'PYMODULE'),
  ('unittest.case',
   'C:\\users\\riccardo\\Local Settings\\Application '
   'Data\\Programs\\Python\\Python39-32\\lib\\unittest\\case.py',
   'PYMODULE'),
  ('unittest._log',
   'C:\\users\\riccardo\\Local Settings\\Application '
   'Data\\Programs\\Python\\Python39-32\\lib\\unittest\\_log.py',
   'PYMODULE'),
  ('unittest.result',
   'C:\\users\\riccardo\\Local Settings\\Application '
   'Data\\Programs\\Python\\Python39-32\\lib\\unittest\\result.py',
   'PYMODULE'),
  ('unittest.util',
   'C:\\users\\riccardo\\Local Settings\\Application '
   'Data\\Programs\\Python\\Python39-32\\lib\\unittest\\util.py',
   'PYMODULE'),
  ('pdb',
   'C:\\users\\riccardo\\Local Settings\\Application '
   'Data\\Programs\\Python\\Python39-32\\lib\\pdb.py',
   'PYMODULE'),
  ('pydoc',
   'C:\\users\\riccardo\\Local Settings\\Application '
   'Data\\Programs\\Python\\Python39-32\\lib\\pydoc.py',
   'PYMODULE'),
  ('webbrowser',
   'C:\\users\\riccardo\\Local Settings\\Application '
   'Data\\Programs\\Python\\Python39-32\\lib\\webbrowser.py',
   'PYMODULE'),
  ('http.server',
   'C:\\users\\riccardo\\Local Settings\\Application '
   'Data\\Programs\\Python\\Python39-32\\lib\\http\\server.py',
   'PYMODULE'),
  ('socketserver',
   'C:\\users\\riccardo\\Local Settings\\Application '
   'Data\\Programs\\Python\\Python39-32\\lib\\socketserver.py',
   'PYMODULE'),
  ('html',
   'C:\\users\\riccardo\\Local Settings\\Application '
   'Data\\Programs\\Python\\Python39-32\\lib\\html\\__init__.py',
   'PYMODULE'),
  ('html.entities',
   'C:\\users\\riccardo\\Local Settings\\Application '
   'Data\\Programs\\Python\\Python39-32\\lib\\html\\entities.py',
   'PYMODULE'),
  ('pydoc_data.topics',
   'C:\\users\\riccardo\\Local Settings\\Application '
   'Data\\Programs\\Python\\Python39-32\\lib\\pydoc_data\\topics.py',
   'PYMODULE'),
  ('pydoc_data',
   'C:\\users\\riccardo\\Local Settings\\Application '
   'Data\\Programs\\Python\\Python39-32\\lib\\pydoc_data\\__init__.py',
   'PYMODULE'),
  ('tty',
   'C:\\users\\riccardo\\Local Settings\\Application '
   'Data\\Programs\\Python\\Python39-32\\lib\\tty.py',
   'PYMODULE'),
  ('sysconfig',
   'C:\\users\\riccardo\\Local Settings\\Application '
   'Data\\Programs\\Python\\Python39-32\\lib\\sysconfig.py',
   'PYMODULE'),
  ('_aix_support',
   'C:\\users\\riccardo\\Local Settings\\Application '
   'Data\\Programs\\Python\\Python39-32\\lib\\_aix_support.py',
   'PYMODULE'),
  ('_bootsubprocess',
   'C:\\users\\riccardo\\Local Settings\\Application '
   'Data\\Programs\\Python\\Python39-32\\lib\\_bootsubprocess.py',
   'PYMODULE'),
  ('_osx_support',
   'C:\\users\\riccardo\\Local Settings\\Application '
   'Data\\Programs\\Python\\Python39-32\\lib\\_osx_support.py',
   'PYMODULE'),
  ('distutils.log',
   'C:\\users\\riccardo\\Local Settings\\Application '
   'Data\\Programs\\Python\\Python39-32\\lib\\distutils\\log.py',
   'PYMODULE'),
  ('distutils',
   'C:\\users\\riccardo\\Local Settings\\Application '
   'Data\\Programs\\Python\\Python39-32\\lib\\distutils\\__init__.py',
   'PYMODULE'),
  ('distutils.ccompiler',
   'C:\\users\\riccardo\\Local Settings\\Application '
   'Data\\Programs\\Python\\Python39-32\\lib\\distutils\\ccompiler.py',
   'PYMODULE'),
  ('distutils.fancy_getopt',
   'C:\\users\\riccardo\\Local Settings\\Application '
   'Data\\Programs\\Python\\Python39-32\\lib\\distutils\\fancy_getopt.py',
   'PYMODULE'),
  ('distutils.debug',
   'C:\\users\\riccardo\\Local Settings\\Application '
   'Data\\Programs\\Python\\Python39-32\\lib\\distutils\\debug.py',
   'PYMODULE'),
  ('distutils.util',
   'C:\\users\\riccardo\\Local Settings\\Application '
   'Data\\Programs\\Python\\Python39-32\\lib\\distutils\\util.py',
   'PYMODULE'),
  ('distutils.filelist',
   'C:\\users\\riccardo\\Local Settings\\Application '
   'Data\\Programs\\Python\\Python39-32\\lib\\distutils\\filelist.py',
   'PYMODULE'),
  ('distutils.dep_util',
   'C:\\users\\riccardo\\Local Settings\\Application '
   'Data\\Programs\\Python\\Python39-32\\lib\\distutils\\dep_util.py',
   'PYMODULE'),
  ('distutils.dir_util',
   'C:\\users\\riccardo\\Local Settings\\Application '
   'Data\\Programs\\Python\\Python39-32\\lib\\distutils\\dir_util.py',
   'PYMODULE'),
  ('distutils.file_util',
   'C:\\users\\riccardo\\Local Settings\\Application '
   'Data\\Programs\\Python\\Python39-32\\lib\\distutils\\file_util.py',
   'PYMODULE'),
  ('distutils.spawn',
   'C:\\users\\riccardo\\Local Settings\\Application '
   'Data\\Programs\\Python\\Python39-32\\lib\\distutils\\spawn.py',
   'PYMODULE'),
  ('distutils.errors',
   'C:\\users\\riccardo\\Local Settings\\Application '
   'Data\\Programs\\Python\\Python39-32\\lib\\distutils\\errors.py',
   'PYMODULE'),
  ('distutils.sysconfig',
   'C:\\users\\riccardo\\Local Settings\\Application '
   'Data\\Programs\\Python\\Python39-32\\lib\\distutils\\sysconfig.py',
   'PYMODULE'),
  ('distutils.text_file',
   'C:\\users\\riccardo\\Local Settings\\Application '
   'Data\\Programs\\Python\\Python39-32\\lib\\distutils\\text_file.py',
   'PYMODULE'),
  ('platform',
   'C:\\users\\riccardo\\Local Settings\\Application '
   'Data\\Programs\\Python\\Python39-32\\lib\\platform.py',
   'PYMODULE'),
  ('plistlib',
   'C:\\users\\riccardo\\Local Settings\\Application '
   'Data\\Programs\\Python\\Python39-32\\lib\\plistlib.py',
   'PYMODULE'),
  ('pkgutil',
   'C:\\users\\riccardo\\Local Settings\\Application '
   'Data\\Programs\\Python\\Python39-32\\lib\\pkgutil.py',
   'PYMODULE'),
  ('zipimport',
   'C:\\users\\riccardo\\Local Settings\\Application '
   'Data\\Programs\\Python\\Python39-32\\lib\\zipimport.py',
   'PYMODULE'),
  ('runpy',
   'C:\\users\\riccardo\\Local Settings\\Application '
   'Data\\Programs\\Python\\Python39-32\\lib\\runpy.py',
   'PYMODULE'),
  ('glob',
   'C:\\users\\riccardo\\Local Settings\\Application '
   'Data\\Programs\\Python\\Python39-32\\lib\\glob.py',
   'PYMODULE'),
  ('code',
   'C:\\users\\riccardo\\Local Settings\\Application '
   'Data\\Programs\\Python\\Python39-32\\lib\\code.py',
   'PYMODULE'),
  ('codeop',
   'C:\\users\\riccardo\\Local Settings\\Application '
   'Data\\Programs\\Python\\Python39-32\\lib\\codeop.py',
   'PYMODULE'),
  ('bdb',
   'C:\\users\\riccardo\\Local Settings\\Application '
   'Data\\Programs\\Python\\Python39-32\\lib\\bdb.py',
   'PYMODULE'),
  ('cmd',
   'C:\\users\\riccardo\\Local Settings\\Application '
   'Data\\Programs\\Python\\Python39-32\\lib\\cmd.py',
   'PYMODULE'),
  ('difflib',
   'C:\\users\\riccardo\\Local Settings\\Application '
   'Data\\Programs\\Python\\Python39-32\\lib\\difflib.py',
   'PYMODULE'),
  ('__future__',
   'C:\\users\\riccardo\\Local Settings\\Application '
   'Data\\Programs\\Python\\Python39-32\\lib\\__future__.py',
   'PYMODULE'),
  ('_compat_pickle',
   'C:\\users\\riccardo\\Local Settings\\Application '
   'Data\\Programs\\Python\\Python39-32\\lib\\_compat_pickle.py',
   'PYMODULE'),
  ('multiprocessing.process',
   'C:\\users\\riccardo\\Local Settings\\Application '
   'Data\\Programs\\Python\\Python39-32\\lib\\multiprocessing\\process.py',
   'PYMODULE'),
  ('multiprocessing.context',
   'C:\\users\\riccardo\\Local Settings\\Application '
   'Data\\Programs\\Python\\Python39-32\\lib\\multiprocessing\\context.py',
   'PYMODULE'),
  ('multiprocessing.popen_forkserver',
   'C:\\users\\riccardo\\Local Settings\\Application '
   'Data\\Programs\\Python\\Python39-32\\lib\\multiprocessing\\popen_forkserver.py',
   'PYMODULE'),
  ('multiprocessing.sharedctypes',
   'C:\\users\\riccardo\\Local Settings\\Application '
   'Data\\Programs\\Python\\Python39-32\\lib\\multiprocessing\\sharedctypes.py',
   'PYMODULE'),
  ('ctypes',
   'C:\\users\\riccardo\\Local Settings\\Application '
   'Data\\Programs\\Python\\Python39-32\\lib\\ctypes\\__init__.py',
   'PYMODULE'),
  ('ctypes._endian',
   'C:\\users\\riccardo\\Local Settings\\Application '
   'Data\\Programs\\Python\\Python39-32\\lib\\ctypes\\_endian.py',
   'PYMODULE'),
  ('multiprocessing.pool',
   'C:\\users\\riccardo\\Local Settings\\Application '
   'Data\\Programs\\Python\\Python39-32\\lib\\multiprocessing\\pool.py',
   'PYMODULE'),
  ('multiprocessing.dummy',
   'C:\\users\\riccardo\\Local Settings\\Application '
   'Data\\Programs\\Python\\Python39-32\\lib\\multiprocessing\\dummy\\__init__.py',
   'PYMODULE'),
  ('multiprocessing.dummy.connection',
   'C:\\users\\riccardo\\Local Settings\\Application '
   'Data\\Programs\\Python\\Python39-32\\lib\\multiprocessing\\dummy\\connection.py',
   'PYMODULE'),
  ('multiprocessing.managers',
   'C:\\users\\riccardo\\Local Settings\\Application '
   'Data\\Programs\\Python\\Python39-32\\lib\\multiprocessing\\managers.py',
   'PYMODULE'),
  ('multiprocessing.shared_memory',
   'C:\\users\\riccardo\\Local Settings\\Application '
   'Data\\Programs\\Python\\Python39-32\\lib\\multiprocessing\\shared_memory.py',
   'PYMODULE'),
  ('secrets',
   'C:\\users\\riccardo\\Local Settings\\Application '
   'Data\\Programs\\Python\\Python39-32\\lib\\secrets.py',
   'PYMODULE'),
  ('multiprocessing.reduction',
   'C:\\users\\riccardo\\Local Settings\\Application '
   'Data\\Programs\\Python\\Python39-32\\lib\\multiprocessing\\reduction.py',
   'PYMODULE'),
  ('multiprocessing.popen_fork',
   'C:\\users\\riccardo\\Local Settings\\Application '
   'Data\\Programs\\Python\\Python39-32\\lib\\multiprocessing\\popen_fork.py',
   'PYMODULE'),
  ('multiprocessing.popen_spawn_win32',
   'C:\\users\\riccardo\\Local Settings\\Application '
   'Data\\Programs\\Python\\Python39-32\\lib\\multiprocessing\\popen_spawn_win32.py',
   'PYMODULE'),
  ('subprocess',
   'C:\\users\\riccardo\\Local Settings\\Application '
   'Data\\Programs\\Python\\Python39-32\\lib\\subprocess.py',
   'PYMODULE'),
  ('multiprocessing.spawn',
   'C:\\users\\riccardo\\Local Settings\\Application '
   'Data\\Programs\\Python\\Python39-32\\lib\\multiprocessing\\spawn.py',
   'PYMODULE'),
  ('multiprocessing',
   'C:\\users\\riccardo\\Local Settings\\Application '
   'Data\\Programs\\Python\\Python39-32\\lib\\multiprocessing\\__init__.py',
   'PYMODULE'),
  ('random',
   'C:\\users\\riccardo\\Local Settings\\Application '
   'Data\\Programs\\Python\\Python39-32\\lib\\random.py',
   'PYMODULE'),
  ('statistics',
   'C:\\users\\riccardo\\Local Settings\\Application '
   'Data\\Programs\\Python\\Python39-32\\lib\\statistics.py',
   'PYMODULE'),
  ('fractions',
   'C:\\users\\riccardo\\Local Settings\\Application '
   'Data\\Programs\\Python\\Python39-32\\lib\\fractions.py',
   'PYMODULE'),
  ('os',
   'C:\\users\\riccardo\\Local Settings\\Application '
   'Data\\Programs\\Python\\Python39-32\\lib\\os.py',
   'PYMODULE'),
  ('PyQt5',
   'C:\\users\\riccardo\\Local Settings\\Application '
   'Data\\Programs\\Python\\Python39-32\\lib\\site-packages\\PyQt5\\__init__.py',
   'PYMODULE'),
  ('typing',
   'C:\\users\\riccardo\\Local Settings\\Application '
   'Data\\Programs\\Python\\Python39-32\\lib\\typing.py',
   'PYMODULE'),
  ('_py_abc',
   'C:\\users\\riccardo\\Local Settings\\Application '
   'Data\\Programs\\Python\\Python39-32\\lib\\_py_abc.py',
   'PYMODULE'),
  ('stringprep',
   'C:\\users\\riccardo\\Local Settings\\Application '
   'Data\\Programs\\Python\\Python39-32\\lib\\stringprep.py',
   'PYMODULE'),
  ('tracemalloc',
   'C:\\users\\riccardo\\Local Settings\\Application '
   'Data\\Programs\\Python\\Python39-32\\lib\\tracemalloc.py',
   'PYMODULE'),
  ('PartitaDama',
   'Z:\\home\\riccardo\\Documents\\informatica\\pc\\programmi_python\\dama_grafica\\PartitaDama.py',
   'PYMODULE'),
  ('MossaPC',
   'Z:\\home\\riccardo\\Documents\\informatica\\pc\\programmi_python\\dama_grafica\\MossaPC.py',
   'PYMODULE'),
  ('GestisciMosse',
   'Z:\\home\\riccardo\\Documents\\informatica\\pc\\programmi_python\\dama_grafica\\GestisciMosse.py',
   'PYMODULE'),
  ('Costanti',
   'Z:\\home\\riccardo\\Documents\\informatica\\pc\\programmi_python\\dama_grafica\\Costanti.py',
   'PYMODULE'),
  ('GraficaDama',
   'Z:\\home\\riccardo\\Documents\\informatica\\pc\\programmi_python\\dama_grafica\\GraficaDama.py',
   'PYMODULE')],
 [('python39.dll',
   'C:\\users\\riccardo\\Local Settings\\Application '
   'Data\\Programs\\Python\\Python39-32\\python39.dll',
   'BINARY'),
  ('api-ms-win-crt-runtime-l1-1-0.dll',
   'C:\\windows\\system32\\api-ms-win-crt-runtime-l1-1-0.dll',
   'BINARY'),
  ('api-ms-win-crt-stdio-l1-1-0.dll',
   'C:\\windows\\system32\\api-ms-win-crt-stdio-l1-1-0.dll',
   'BINARY'),
  ('api-ms-win-crt-heap-l1-1-0.dll',
   'C:\\windows\\system32\\api-ms-win-crt-heap-l1-1-0.dll',
   'BINARY'),
  ('api-ms-win-crt-math-l1-1-0.dll',
   'C:\\windows\\system32\\api-ms-win-crt-math-l1-1-0.dll',
   'BINARY'),
  ('api-ms-win-crt-locale-l1-1-0.dll',
   'C:\\windows\\system32\\api-ms-win-crt-locale-l1-1-0.dll',
   'BINARY'),
  ('VCRUNTIME140.dll',
   'C:\\users\\riccardo\\Local Settings\\Application '
   'Data\\Programs\\Python\\Python39-32\\VCRUNTIME140.dll',
   'BINARY'),
  ('api-ms-win-core-path-l1-1-0.dll',
   'C:\\windows\\system32\\api-ms-win-core-path-l1-1-0.dll',
   'BINARY'),
  ('api-ms-win-crt-process-l1-1-0.dll',
   'C:\\windows\\system32\\api-ms-win-crt-process-l1-1-0.dll',
   'BINARY'),
  ('api-ms-win-crt-time-l1-1-0.dll',
   'C:\\windows\\system32\\api-ms-win-crt-time-l1-1-0.dll',
   'BINARY'),
  ('api-ms-win-crt-convert-l1-1-0.dll',
   'C:\\windows\\system32\\api-ms-win-crt-convert-l1-1-0.dll',
   'BINARY'),
  ('api-ms-win-crt-string-l1-1-0.dll',
   'C:\\windows\\system32\\api-ms-win-crt-string-l1-1-0.dll',
   'BINARY'),
  ('api-ms-win-crt-conio-l1-1-0.dll',
   'C:\\windows\\system32\\api-ms-win-crt-conio-l1-1-0.dll',
   'BINARY'),
  ('api-ms-win-crt-filesystem-l1-1-0.dll',
   'C:\\windows\\system32\\api-ms-win-crt-filesystem-l1-1-0.dll',
   'BINARY'),
  ('api-ms-win-crt-environment-l1-1-0.dll',
   'C:\\windows\\system32\\api-ms-win-crt-environment-l1-1-0.dll',
   'BINARY'),
  ('PyQt5\\Qt5\\plugins\\platforms\\qoffscreen.dll',
   'C:\\users\\riccardo\\Local Settings\\Application '
   'Data\\Programs\\Python\\Python39-32\\lib\\site-packages\\PyQt5\\Qt5\\plugins\\platforms\\qoffscreen.dll',
   'BINARY'),
  ('PyQt5\\Qt5\\plugins\\imageformats\\qico.dll',
   'C:\\users\\riccardo\\Local Settings\\Application '
   'Data\\Programs\\Python\\Python39-32\\lib\\site-packages\\PyQt5\\Qt5\\plugins\\imageformats\\qico.dll',
   'BINARY'),
  ('PyQt5\\Qt5\\plugins\\iconengines\\qsvgicon.dll',
   'C:\\users\\riccardo\\Local Settings\\Application '
   'Data\\Programs\\Python\\Python39-32\\lib\\site-packages\\PyQt5\\Qt5\\plugins\\iconengines\\qsvgicon.dll',
   'BINARY'),
  ('libGLESv2.dll',
   'C:\\users\\riccardo\\Local Settings\\Application '
   'Data\\Programs\\Python\\Python39-32\\lib\\site-packages\\PyQt5\\Qt5\\bin\\libGLESv2.dll',
   'BINARY'),
  ('PyQt5\\Qt5\\plugins\\imageformats\\qjpeg.dll',
   'C:\\users\\riccardo\\Local Settings\\Application '
   'Data\\Programs\\Python\\Python39-32\\lib\\site-packages\\PyQt5\\Qt5\\plugins\\imageformats\\qjpeg.dll',
   'BINARY'),
  ('PyQt5\\Qt5\\plugins\\imageformats\\qtga.dll',
   'C:\\users\\riccardo\\Local Settings\\Application '
   'Data\\Programs\\Python\\Python39-32\\lib\\site-packages\\PyQt5\\Qt5\\plugins\\imageformats\\qtga.dll',
   'BINARY'),
  ('PyQt5\\Qt5\\plugins\\imageformats\\qwbmp.dll',
   'C:\\users\\riccardo\\Local Settings\\Application '
   'Data\\Programs\\Python\\Python39-32\\lib\\site-packages\\PyQt5\\Qt5\\plugins\\imageformats\\qwbmp.dll',
   'BINARY'),
  ('PyQt5\\Qt5\\plugins\\imageformats\\qwebp.dll',
   'C:\\users\\riccardo\\Local Settings\\Application '
   'Data\\Programs\\Python\\Python39-32\\lib\\site-packages\\PyQt5\\Qt5\\plugins\\imageformats\\qwebp.dll',
   'BINARY'),
  ('opengl32sw.dll',
   'C:\\users\\riccardo\\Local Settings\\Application '
   'Data\\Programs\\Python\\Python39-32\\lib\\site-packages\\PyQt5\\Qt5\\bin\\opengl32sw.dll',
   'BINARY'),
  ('PyQt5\\Qt5\\plugins\\imageformats\\qgif.dll',
   'C:\\users\\riccardo\\Local Settings\\Application '
   'Data\\Programs\\Python\\Python39-32\\lib\\site-packages\\PyQt5\\Qt5\\plugins\\imageformats\\qgif.dll',
   'BINARY'),
  ('libEGL.dll',
   'C:\\users\\riccardo\\Local Settings\\Application '
   'Data\\Programs\\Python\\Python39-32\\lib\\site-packages\\PyQt5\\Qt5\\bin\\libEGL.dll',
   'BINARY'),
  ('PyQt5\\Qt5\\plugins\\imageformats\\qicns.dll',
   'C:\\users\\riccardo\\Local Settings\\Application '
   'Data\\Programs\\Python\\Python39-32\\lib\\site-packages\\PyQt5\\Qt5\\plugins\\imageformats\\qicns.dll',
   'BINARY'),
  ('d3dcompiler_47.dll',
   'C:\\users\\riccardo\\Local Settings\\Application '
   'Data\\Programs\\Python\\Python39-32\\lib\\site-packages\\PyQt5\\Qt5\\bin\\d3dcompiler_47.dll',
   'BINARY'),
  ('PyQt5\\Qt5\\plugins\\platforms\\qwebgl.dll',
   'C:\\users\\riccardo\\Local Settings\\Application '
   'Data\\Programs\\Python\\Python39-32\\lib\\site-packages\\PyQt5\\Qt5\\plugins\\platforms\\qwebgl.dll',
   'BINARY'),
  ('PyQt5\\Qt5\\plugins\\imageformats\\qsvg.dll',
   'C:\\users\\riccardo\\Local Settings\\Application '
   'Data\\Programs\\Python\\Python39-32\\lib\\site-packages\\PyQt5\\Qt5\\plugins\\imageformats\\qsvg.dll',
   'BINARY'),
  ('PyQt5\\Qt5\\plugins\\platforms\\qwindows.dll',
   'C:\\users\\riccardo\\Local Settings\\Application '
   'Data\\Programs\\Python\\Python39-32\\lib\\site-packages\\PyQt5\\Qt5\\plugins\\platforms\\qwindows.dll',
   'BINARY'),
  ('PyQt5\\Qt5\\plugins\\platforms\\qminimal.dll',
   'C:\\users\\riccardo\\Local Settings\\Application '
   'Data\\Programs\\Python\\Python39-32\\lib\\site-packages\\PyQt5\\Qt5\\plugins\\platforms\\qminimal.dll',
   'BINARY'),
  ('PyQt5\\Qt5\\plugins\\styles\\qwindowsvistastyle.dll',
   'C:\\users\\riccardo\\Local Settings\\Application '
   'Data\\Programs\\Python\\Python39-32\\lib\\site-packages\\PyQt5\\Qt5\\plugins\\styles\\qwindowsvistastyle.dll',
   'BINARY'),
  ('PyQt5\\Qt5\\plugins\\imageformats\\qtiff.dll',
   'C:\\users\\riccardo\\Local Settings\\Application '
   'Data\\Programs\\Python\\Python39-32\\lib\\site-packages\\PyQt5\\Qt5\\plugins\\imageformats\\qtiff.dll',
   'BINARY'),
  ('PyQt5\\Qt5\\plugins\\platformthemes\\qxdgdesktopportal.dll',
   'C:\\users\\riccardo\\Local Settings\\Application '
   'Data\\Programs\\Python\\Python39-32\\lib\\site-packages\\PyQt5\\Qt5\\plugins\\platformthemes\\qxdgdesktopportal.dll',
   'BINARY'),
  ('_lzma',
   'C:\\users\\riccardo\\Local Settings\\Application '
   'Data\\Programs\\Python\\Python39-32\\DLLs\\_lzma.pyd',
   'EXTENSION'),
  ('_bz2',
   'C:\\users\\riccardo\\Local Settings\\Application '
   'Data\\Programs\\Python\\Python39-32\\DLLs\\_bz2.pyd',
   'EXTENSION'),
  ('unicodedata',
   'C:\\users\\riccardo\\Local Settings\\Application '
   'Data\\Programs\\Python\\Python39-32\\DLLs\\unicodedata.pyd',
   'EXTENSION'),
  ('select',
   'C:\\users\\riccardo\\Local Settings\\Application '
   'Data\\Programs\\Python\\Python39-32\\DLLs\\select.pyd',
   'EXTENSION'),
  ('_socket',
   'C:\\users\\riccardo\\Local Settings\\Application '
   'Data\\Programs\\Python\\Python39-32\\DLLs\\_socket.pyd',
   'EXTENSION'),
  ('_multiprocessing',
   'C:\\users\\riccardo\\Local Settings\\Application '
   'Data\\Programs\\Python\\Python39-32\\DLLs\\_multiprocessing.pyd',
   'EXTENSION'),
  ('pyexpat',
   'C:\\users\\riccardo\\Local Settings\\Application '
   'Data\\Programs\\Python\\Python39-32\\DLLs\\pyexpat.pyd',
   'EXTENSION'),
  ('_ssl',
   'C:\\users\\riccardo\\Local Settings\\Application '
   'Data\\Programs\\Python\\Python39-32\\DLLs\\_ssl.pyd',
   'EXTENSION'),
  ('_hashlib',
   'C:\\users\\riccardo\\Local Settings\\Application '
   'Data\\Programs\\Python\\Python39-32\\DLLs\\_hashlib.pyd',
   'EXTENSION'),
  ('_decimal',
   'C:\\users\\riccardo\\Local Settings\\Application '
   'Data\\Programs\\Python\\Python39-32\\DLLs\\_decimal.pyd',
   'EXTENSION'),
  ('_overlapped',
   'C:\\users\\riccardo\\Local Settings\\Application '
   'Data\\Programs\\Python\\Python39-32\\DLLs\\_overlapped.pyd',
   'EXTENSION'),
  ('_asyncio',
   'C:\\users\\riccardo\\Local Settings\\Application '
   'Data\\Programs\\Python\\Python39-32\\DLLs\\_asyncio.pyd',
   'EXTENSION'),
  ('_queue',
   'C:\\users\\riccardo\\Local Settings\\Application '
   'Data\\Programs\\Python\\Python39-32\\DLLs\\_queue.pyd',
   'EXTENSION'),
  ('_ctypes',
   'C:\\users\\riccardo\\Local Settings\\Application '
   'Data\\Programs\\Python\\Python39-32\\DLLs\\_ctypes.pyd',
   'EXTENSION'),
  ('PyQt5.sip',
   'C:\\users\\riccardo\\Local Settings\\Application '
   'Data\\Programs\\Python\\Python39-32\\lib\\site-packages\\PyQt5\\sip.cp39-win32.pyd',
   'EXTENSION'),
  ('PyQt5.QtWidgets',
   'C:\\users\\riccardo\\Local Settings\\Application '
   'Data\\Programs\\Python\\Python39-32\\lib\\site-packages\\PyQt5\\QtWidgets.pyd',
   'EXTENSION'),
  ('PyQt5.QtGui',
   'C:\\users\\riccardo\\Local Settings\\Application '
   'Data\\Programs\\Python\\Python39-32\\lib\\site-packages\\PyQt5\\QtGui.pyd',
   'EXTENSION'),
  ('PyQt5.QtCore',
   'C:\\users\\riccardo\\Local Settings\\Application '
   'Data\\Programs\\Python\\Python39-32\\lib\\site-packages\\PyQt5\\QtCore.pyd',
   'EXTENSION'),
  ('api-ms-win-crt-utility-l1-1-0.dll',
   'C:\\windows\\system32\\api-ms-win-crt-utility-l1-1-0.dll',
   'BINARY'),
  ('Qt5Core.dll',
   'C:\\users\\riccardo\\Local Settings\\Application '
   'Data\\Programs\\Python\\Python39-32\\lib\\site-packages\\PyQt5\\Qt5\\bin\\Qt5Core.dll',
   'BINARY'),
  ('Qt5Gui.dll',
   'C:\\users\\riccardo\\Local Settings\\Application '
   'Data\\Programs\\Python\\Python39-32\\lib\\site-packages\\PyQt5\\Qt5\\bin\\Qt5Gui.dll',
   'BINARY'),
  ('Qt5Svg.dll',
   'C:\\users\\riccardo\\Local Settings\\Application '
   'Data\\Programs\\Python\\Python39-32\\lib\\site-packages\\PyQt5\\Qt5\\bin\\Qt5Svg.dll',
   'BINARY'),
  ('MSVCP140.dll',
   'C:\\users\\riccardo\\Local Settings\\Application '
   'Data\\Programs\\Python\\Python39-32\\lib\\site-packages\\PyQt5\\Qt5\\bin\\MSVCP140.dll',
   'BINARY'),
  ('Qt5Network.dll',
   'C:\\users\\riccardo\\Local Settings\\Application '
   'Data\\Programs\\Python\\Python39-32\\lib\\site-packages\\PyQt5\\Qt5\\bin\\Qt5Network.dll',
   'BINARY'),
  ('Qt5Quick.dll',
   'C:\\users\\riccardo\\Local Settings\\Application '
   'Data\\Programs\\Python\\Python39-32\\lib\\site-packages\\PyQt5\\Qt5\\bin\\Qt5Quick.dll',
   'BINARY'),
  ('Qt5WebSockets.dll',
   'C:\\users\\riccardo\\Local Settings\\Application '
   'Data\\Programs\\Python\\Python39-32\\lib\\site-packages\\PyQt5\\Qt5\\bin\\Qt5WebSockets.dll',
   'BINARY'),
  ('Qt5Widgets.dll',
   'C:\\users\\riccardo\\Local Settings\\Application '
   'Data\\Programs\\Python\\Python39-32\\lib\\site-packages\\PyQt5\\Qt5\\bin\\Qt5Widgets.dll',
   'BINARY'),
  ('Qt5DBus.dll',
   'C:\\users\\riccardo\\Local Settings\\Application '
   'Data\\Programs\\Python\\Python39-32\\lib\\site-packages\\PyQt5\\Qt5\\bin\\Qt5DBus.dll',
   'BINARY'),
  ('libssl-1_1.dll',
   'C:\\users\\riccardo\\Local Settings\\Application '
   'Data\\Programs\\Python\\Python39-32\\DLLs\\libssl-1_1.dll',
   'BINARY'),
  ('libcrypto-1_1.dll',
   'C:\\users\\riccardo\\Local Settings\\Application '
   'Data\\Programs\\Python\\Python39-32\\DLLs\\libcrypto-1_1.dll',
   'BINARY'),
  ('libffi-7.dll',
   'C:\\users\\riccardo\\Local Settings\\Application '
   'Data\\Programs\\Python\\Python39-32\\DLLs\\libffi-7.dll',
   'BINARY'),
  ('python3.dll',
   'C:\\users\\riccardo\\Local Settings\\Application '
   'Data\\Programs\\Python\\Python39-32\\python3.dll',
   'BINARY'),
  ('MSVCP140_1.dll',
   'C:\\users\\riccardo\\Local Settings\\Application '
   'Data\\Programs\\Python\\Python39-32\\lib\\site-packages\\PyQt5\\Qt5\\bin\\MSVCP140_1.dll',
   'BINARY'),
  ('Qt5Qml.dll',
   'C:\\users\\riccardo\\Local Settings\\Application '
   'Data\\Programs\\Python\\Python39-32\\lib\\site-packages\\PyQt5\\Qt5\\bin\\Qt5Qml.dll',
   'BINARY'),
  ('Qt5QmlModels.dll',
   'C:\\users\\riccardo\\Local Settings\\Application '
   'Data\\Programs\\Python\\Python39-32\\lib\\site-packages\\PyQt5\\Qt5\\bin\\Qt5QmlModels.dll',
   'BINARY')],
 [],
 [],
 [('base_library.zip',
   'Z:\\home\\riccardo\\Documents\\informatica\\pc\\programmi_python\\dama_grafica\\build\\dama_profondita\\base_library.zip',
   'DATA'),
  ('PyQt5\\Qt5\\translations\\qtbase_ar.qm',
   'C:\\users\\riccardo\\Local Settings\\Application '
   'Data\\Programs\\Python\\Python39-32\\lib\\site-packages\\PyQt5\\Qt5\\translations\\qtbase_ar.qm',
   'DATA'),
  ('PyQt5\\Qt5\\translations\\qtbase_ko.qm',
   'C:\\users\\riccardo\\Local Settings\\Application '
   'Data\\Programs\\Python\\Python39-32\\lib\\site-packages\\PyQt5\\Qt5\\translations\\qtbase_ko.qm',
   'DATA'),
  ('PyQt5\\Qt5\\translations\\qtbase_it.qm',
   'C:\\users\\riccardo\\Local Settings\\Application '
   'Data\\Programs\\Python\\Python39-32\\lib\\site-packages\\PyQt5\\Qt5\\translations\\qtbase_it.qm',
   'DATA'),
  ('PyQt5\\Qt5\\translations\\qtbase_hu.qm',
   'C:\\users\\riccardo\\Local Settings\\Application '
   'Data\\Programs\\Python\\Python39-32\\lib\\site-packages\\PyQt5\\Qt5\\translations\\qtbase_hu.qm',
   'DATA'),
  ('PyQt5\\Qt5\\translations\\qtbase_en.qm',
   'C:\\users\\riccardo\\Local Settings\\Application '
   'Data\\Programs\\Python\\Python39-32\\lib\\site-packages\\PyQt5\\Qt5\\translations\\qtbase_en.qm',
   'DATA'),
  ('PyQt5\\Qt5\\translations\\qtbase_tr.qm',
   'C:\\users\\riccardo\\Local Settings\\Application '
   'Data\\Programs\\Python\\Python39-32\\lib\\site-packages\\PyQt5\\Qt5\\translations\\qtbase_tr.qm',
   'DATA'),
  ('PyQt5\\Qt5\\translations\\qtbase_ca.qm',
   'C:\\users\\riccardo\\Local Settings\\Application '
   'Data\\Programs\\Python\\Python39-32\\lib\\site-packages\\PyQt5\\Qt5\\translations\\qtbase_ca.qm',
   'DATA'),
  ('PyQt5\\Qt5\\translations\\qtbase_uk.qm',
   'C:\\users\\riccardo\\Local Settings\\Application '
   'Data\\Programs\\Python\\Python39-32\\lib\\site-packages\\PyQt5\\Qt5\\translations\\qtbase_uk.qm',
   'DATA'),
  ('PyQt5\\Qt5\\translations\\qtbase_he.qm',
   'C:\\users\\riccardo\\Local Settings\\Application '
   'Data\\Programs\\Python\\Python39-32\\lib\\site-packages\\PyQt5\\Qt5\\translations\\qtbase_he.qm',
   'DATA'),
  ('PyQt5\\Qt5\\translations\\qtbase_ru.qm',
   'C:\\users\\riccardo\\Local Settings\\Application '
   'Data\\Programs\\Python\\Python39-32\\lib\\site-packages\\PyQt5\\Qt5\\translations\\qtbase_ru.qm',
   'DATA'),
  ('PyQt5\\Qt5\\translations\\qtbase_fr.qm',
   'C:\\users\\riccardo\\Local Settings\\Application '
   'Data\\Programs\\Python\\Python39-32\\lib\\site-packages\\PyQt5\\Qt5\\translations\\qtbase_fr.qm',
   'DATA'),
  ('PyQt5\\Qt5\\translations\\qtbase_es.qm',
   'C:\\users\\riccardo\\Local Settings\\Application '
   'Data\\Programs\\Python\\Python39-32\\lib\\site-packages\\PyQt5\\Qt5\\translations\\qtbase_es.qm',
   'DATA'),
  ('PyQt5\\Qt5\\translations\\qtbase_fi.qm',
   'C:\\users\\riccardo\\Local Settings\\Application '
   'Data\\Programs\\Python\\Python39-32\\lib\\site-packages\\PyQt5\\Qt5\\translations\\qtbase_fi.qm',
   'DATA'),
  ('PyQt5\\Qt5\\translations\\qtbase_sk.qm',
   'C:\\users\\riccardo\\Local Settings\\Application '
   'Data\\Programs\\Python\\Python39-32\\lib\\site-packages\\PyQt5\\Qt5\\translations\\qtbase_sk.qm',
   'DATA'),
  ('PyQt5\\Qt5\\translations\\qtbase_pl.qm',
   'C:\\users\\riccardo\\Local Settings\\Application '
   'Data\\Programs\\Python\\Python39-32\\lib\\site-packages\\PyQt5\\Qt5\\translations\\qtbase_pl.qm',
   'DATA'),
  ('PyQt5\\Qt5\\translations\\qtbase_bg.qm',
   'C:\\users\\riccardo\\Local Settings\\Application '
   'Data\\Programs\\Python\\Python39-32\\lib\\site-packages\\PyQt5\\Qt5\\translations\\qtbase_bg.qm',
   'DATA'),
  ('PyQt5\\Qt5\\translations\\qtbase_da.qm',
   'C:\\users\\riccardo\\Local Settings\\Application '
   'Data\\Programs\\Python\\Python39-32\\lib\\site-packages\\PyQt5\\Qt5\\translations\\qtbase_da.qm',
   'DATA'),
  ('PyQt5\\Qt5\\translations\\qtbase_zh_TW.qm',
   'C:\\users\\riccardo\\Local Settings\\Application '
   'Data\\Programs\\Python\\Python39-32\\lib\\site-packages\\PyQt5\\Qt5\\translations\\qtbase_zh_TW.qm',
   'DATA'),
  ('PyQt5\\Qt5\\translations\\qtbase_gd.qm',
   'C:\\users\\riccardo\\Local Settings\\Application '
   'Data\\Programs\\Python\\Python39-32\\lib\\site-packages\\PyQt5\\Qt5\\translations\\qtbase_gd.qm',
   'DATA'),
  ('PyQt5\\Qt5\\translations\\qtbase_lv.qm',
   'C:\\users\\riccardo\\Local Settings\\Application '
   'Data\\Programs\\Python\\Python39-32\\lib\\site-packages\\PyQt5\\Qt5\\translations\\qtbase_lv.qm',
   'DATA'),
  ('PyQt5\\Qt5\\translations\\qtbase_cs.qm',
   'C:\\users\\riccardo\\Local Settings\\Application '
   'Data\\Programs\\Python\\Python39-32\\lib\\site-packages\\PyQt5\\Qt5\\translations\\qtbase_cs.qm',
   'DATA'),
  ('PyQt5\\Qt5\\translations\\qtbase_ja.qm',
   'C:\\users\\riccardo\\Local Settings\\Application '
   'Data\\Programs\\Python\\Python39-32\\lib\\site-packages\\PyQt5\\Qt5\\translations\\qtbase_ja.qm',
   'DATA'),
  ('PyQt5\\Qt5\\translations\\qtbase_de.qm',
   'C:\\users\\riccardo\\Local Settings\\Application '
   'Data\\Programs\\Python\\Python39-32\\lib\\site-packages\\PyQt5\\Qt5\\translations\\qtbase_de.qm',
   'DATA')],
 [])
