('./dist_compilata\\dama_profondita.exe',
 False,
 False,
 False,
 'spec_file\\icona_dama.ico',
 'Z:\\home\\riccardo\\Documents\\informatica\\pc\\programmi_python\\dama_grafica\\versionfile.txt',
 False,
 False,
 '<?xml version="1.0" encoding="UTF-8" standalone="yes"?><assembly xmlns="urn:schemas-microsoft-com:asm.v1" manifestVersion="1.0"><assemblyIdentity type="win32" name="dama_profondita" processorArchitecture="x86" version="1.0.0.0"/><trustInfo xmlns="urn:schemas-microsoft-com:asm.v3"><security><requestedPrivileges><requestedExecutionLevel level="asInvoker" uiAccess="false"/></requestedPrivileges></security></trustInfo><dependency><dependentAssembly><assemblyIdentity type="win32" name="Microsoft.Windows.Common-Controls" language="*" processorArchitecture="*" version="6.0.0.0" publicKeyToken="6595b64144ccf1df"/><compatibility xmlns="urn:schemas-microsoft-com:compatibility.v1"/></dependentAssembly></dependency><compatibility xmlns="urn:schemas-microsoft-com:compatibility.v1"><application><supportedOS Id="{e2011457-1546-43c5-a5fe-008deee3d3f0}"/><supportedOS Id="{35138b9a-5d96-4fbd-8e2d-a2440225f93a}"/><supportedOS Id="{4a2f28e3-53b9-4441-ba9c-d69d4a4a6e38}"/><supportedOS Id="{1f676c76-80e1-4239-95bb-83d0f6d0da78}"/><supportedOS Id="{8e0f7a12-bfb3-4fe8-b9a5-48fd50a15a9a}"/></application></compatibility><application xmlns="urn:schemas-microsoft-com:asm.v3"><windowsSettings><longPathAware xmlns="http://schemas.microsoft.com/SMI/2016/WindowsSettings">true</longPathAware></windowsSettings></application></assembly>',
 True,
 None,
 None,
 None,
 'dama_profondita.pkg',
 [('PYZ-00.pyz',
   'Z:\\home\\riccardo\\Documents\\informatica\\pc\\programmi_python\\dama_grafica\\build\\dama_profondita\\PYZ-00.pyz',
   'PYZ'),
  ('struct',
   'C:\\users\\riccardo\\Local Settings\\Application '
   'Data\\Programs\\Python\\Python39-32\\lib\\struct.pyo',
   'PYMODULE'),
  ('pyimod01_os_path',
   'C:\\users\\riccardo\\Local Settings\\Application '
   'Data\\Programs\\Python\\Python39-32\\lib\\site-packages\\PyInstaller\\loader\\pyimod01_os_path.pyc',
   'PYMODULE'),
  ('pyimod02_archive',
   'C:\\users\\riccardo\\Local Settings\\Application '
   'Data\\Programs\\Python\\Python39-32\\lib\\site-packages\\PyInstaller\\loader\\pyimod02_archive.pyc',
   'PYMODULE'),
  ('pyimod03_importers',
   'C:\\users\\riccardo\\Local Settings\\Application '
   'Data\\Programs\\Python\\Python39-32\\lib\\site-packages\\PyInstaller\\loader\\pyimod03_importers.pyc',
   'PYMODULE'),
  ('pyimod04_ctypes',
   'C:\\users\\riccardo\\Local Settings\\Application '
   'Data\\Programs\\Python\\Python39-32\\lib\\site-packages\\PyInstaller\\loader\\pyimod04_ctypes.pyc',
   'PYMODULE'),
  ('pyiboot01_bootstrap',
   'C:\\users\\riccardo\\Local Settings\\Application '
   'Data\\Programs\\Python\\Python39-32\\lib\\site-packages\\PyInstaller\\loader\\pyiboot01_bootstrap.py',
   'PYSOURCE'),
  ('pyi_rth_pkgutil',
   'C:\\users\\riccardo\\Local Settings\\Application '
   'Data\\Programs\\Python\\Python39-32\\Lib\\site-packages\\PyInstaller\\hooks\\rthooks\\pyi_rth_pkgutil.py',
   'PYSOURCE'),
  ('pyi_rth_multiprocessing',
   'C:\\users\\riccardo\\Local Settings\\Application '
   'Data\\Programs\\Python\\Python39-32\\Lib\\site-packages\\PyInstaller\\hooks\\rthooks\\pyi_rth_multiprocessing.py',
   'PYSOURCE'),
  ('pyi_rth_inspect',
   'C:\\users\\riccardo\\Local Settings\\Application '
   'Data\\Programs\\Python\\Python39-32\\Lib\\site-packages\\PyInstaller\\hooks\\rthooks\\pyi_rth_inspect.py',
   'PYSOURCE'),
  ('pyi_rth_pyqt5',
   'C:\\users\\riccardo\\Local Settings\\Application '
   'Data\\Programs\\Python\\Python39-32\\Lib\\site-packages\\PyInstaller\\hooks\\rthooks\\pyi_rth_pyqt5.py',
   'PYSOURCE'),
  ('main',
   'Z:\\home\\riccardo\\Documents\\informatica\\pc\\programmi_python\\dama_grafica\\main.py',
   'PYSOURCE'),
  ('python39.dll',
   'C:\\users\\riccardo\\Local Settings\\Application '
   'Data\\Programs\\Python\\Python39-32\\python39.dll',
   'BINARY'),
  ('api-ms-win-crt-runtime-l1-1-0.dll',
   'C:\\windows\\system32\\api-ms-win-crt-runtime-l1-1-0.dll',
   'BINARY'),
  ('api-ms-win-crt-stdio-l1-1-0.dll',
   'C:\\windows\\system32\\api-ms-win-crt-stdio-l1-1-0.dll',
   'BINARY'),
  ('api-ms-win-crt-heap-l1-1-0.dll',
   'C:\\windows\\system32\\api-ms-win-crt-heap-l1-1-0.dll',
   'BINARY'),
  ('api-ms-win-crt-math-l1-1-0.dll',
   'C:\\windows\\system32\\api-ms-win-crt-math-l1-1-0.dll',
   'BINARY'),
  ('api-ms-win-crt-locale-l1-1-0.dll',
   'C:\\windows\\system32\\api-ms-win-crt-locale-l1-1-0.dll',
   'BINARY'),
  ('VCRUNTIME140.dll',
   'C:\\users\\riccardo\\Local Settings\\Application '
   'Data\\Programs\\Python\\Python39-32\\VCRUNTIME140.dll',
   'BINARY'),
  ('api-ms-win-core-path-l1-1-0.dll',
   'C:\\windows\\system32\\api-ms-win-core-path-l1-1-0.dll',
   'BINARY'),
  ('api-ms-win-crt-process-l1-1-0.dll',
   'C:\\windows\\system32\\api-ms-win-crt-process-l1-1-0.dll',
   'BINARY'),
  ('api-ms-win-crt-time-l1-1-0.dll',
   'C:\\windows\\system32\\api-ms-win-crt-time-l1-1-0.dll',
   'BINARY'),
  ('api-ms-win-crt-convert-l1-1-0.dll',
   'C:\\windows\\system32\\api-ms-win-crt-convert-l1-1-0.dll',
   'BINARY'),
  ('api-ms-win-crt-string-l1-1-0.dll',
   'C:\\windows\\system32\\api-ms-win-crt-string-l1-1-0.dll',
   'BINARY'),
  ('api-ms-win-crt-conio-l1-1-0.dll',
   'C:\\windows\\system32\\api-ms-win-crt-conio-l1-1-0.dll',
   'BINARY'),
  ('api-ms-win-crt-filesystem-l1-1-0.dll',
   'C:\\windows\\system32\\api-ms-win-crt-filesystem-l1-1-0.dll',
   'BINARY'),
  ('api-ms-win-crt-environment-l1-1-0.dll',
   'C:\\windows\\system32\\api-ms-win-crt-environment-l1-1-0.dll',
   'BINARY'),
  ('PyQt5\\Qt5\\plugins\\platforms\\qoffscreen.dll',
   'C:\\users\\riccardo\\Local Settings\\Application '
   'Data\\Programs\\Python\\Python39-32\\lib\\site-packages\\PyQt5\\Qt5\\plugins\\platforms\\qoffscreen.dll',
   'BINARY'),
  ('PyQt5\\Qt5\\plugins\\imageformats\\qico.dll',
   'C:\\users\\riccardo\\Local Settings\\Application '
   'Data\\Programs\\Python\\Python39-32\\lib\\site-packages\\PyQt5\\Qt5\\plugins\\imageformats\\qico.dll',
   'BINARY'),
  ('PyQt5\\Qt5\\plugins\\iconengines\\qsvgicon.dll',
   'C:\\users\\riccardo\\Local Settings\\Application '
   'Data\\Programs\\Python\\Python39-32\\lib\\site-packages\\PyQt5\\Qt5\\plugins\\iconengines\\qsvgicon.dll',
   'BINARY'),
  ('libGLESv2.dll',
   'C:\\users\\riccardo\\Local Settings\\Application '
   'Data\\Programs\\Python\\Python39-32\\lib\\site-packages\\PyQt5\\Qt5\\bin\\libGLESv2.dll',
   'BINARY'),
  ('PyQt5\\Qt5\\plugins\\imageformats\\qjpeg.dll',
   'C:\\users\\riccardo\\Local Settings\\Application '
   'Data\\Programs\\Python\\Python39-32\\lib\\site-packages\\PyQt5\\Qt5\\plugins\\imageformats\\qjpeg.dll',
   'BINARY'),
  ('PyQt5\\Qt5\\plugins\\imageformats\\qtga.dll',
   'C:\\users\\riccardo\\Local Settings\\Application '
   'Data\\Programs\\Python\\Python39-32\\lib\\site-packages\\PyQt5\\Qt5\\plugins\\imageformats\\qtga.dll',
   'BINARY'),
  ('PyQt5\\Qt5\\plugins\\imageformats\\qwbmp.dll',
   'C:\\users\\riccardo\\Local Settings\\Application '
   'Data\\Programs\\Python\\Python39-32\\lib\\site-packages\\PyQt5\\Qt5\\plugins\\imageformats\\qwbmp.dll',
   'BINARY'),
  ('PyQt5\\Qt5\\plugins\\imageformats\\qwebp.dll',
   'C:\\users\\riccardo\\Local Settings\\Application '
   'Data\\Programs\\Python\\Python39-32\\lib\\site-packages\\PyQt5\\Qt5\\plugins\\imageformats\\qwebp.dll',
   'BINARY'),
  ('opengl32sw.dll',
   'C:\\users\\riccardo\\Local Settings\\Application '
   'Data\\Programs\\Python\\Python39-32\\lib\\site-packages\\PyQt5\\Qt5\\bin\\opengl32sw.dll',
   'BINARY'),
  ('PyQt5\\Qt5\\plugins\\imageformats\\qgif.dll',
   'C:\\users\\riccardo\\Local Settings\\Application '
   'Data\\Programs\\Python\\Python39-32\\lib\\site-packages\\PyQt5\\Qt5\\plugins\\imageformats\\qgif.dll',
   'BINARY'),
  ('libEGL.dll',
   'C:\\users\\riccardo\\Local Settings\\Application '
   'Data\\Programs\\Python\\Python39-32\\lib\\site-packages\\PyQt5\\Qt5\\bin\\libEGL.dll',
   'BINARY'),
  ('PyQt5\\Qt5\\plugins\\imageformats\\qicns.dll',
   'C:\\users\\riccardo\\Local Settings\\Application '
   'Data\\Programs\\Python\\Python39-32\\lib\\site-packages\\PyQt5\\Qt5\\plugins\\imageformats\\qicns.dll',
   'BINARY'),
  ('d3dcompiler_47.dll',
   'C:\\users\\riccardo\\Local Settings\\Application '
   'Data\\Programs\\Python\\Python39-32\\lib\\site-packages\\PyQt5\\Qt5\\bin\\d3dcompiler_47.dll',
   'BINARY'),
  ('PyQt5\\Qt5\\plugins\\platforms\\qwebgl.dll',
   'C:\\users\\riccardo\\Local Settings\\Application '
   'Data\\Programs\\Python\\Python39-32\\lib\\site-packages\\PyQt5\\Qt5\\plugins\\platforms\\qwebgl.dll',
   'BINARY'),
  ('PyQt5\\Qt5\\plugins\\imageformats\\qsvg.dll',
   'C:\\users\\riccardo\\Local Settings\\Application '
   'Data\\Programs\\Python\\Python39-32\\lib\\site-packages\\PyQt5\\Qt5\\plugins\\imageformats\\qsvg.dll',
   'BINARY'),
  ('PyQt5\\Qt5\\plugins\\platforms\\qwindows.dll',
   'C:\\users\\riccardo\\Local Settings\\Application '
   'Data\\Programs\\Python\\Python39-32\\lib\\site-packages\\PyQt5\\Qt5\\plugins\\platforms\\qwindows.dll',
   'BINARY'),
  ('PyQt5\\Qt5\\plugins\\platforms\\qminimal.dll',
   'C:\\users\\riccardo\\Local Settings\\Application '
   'Data\\Programs\\Python\\Python39-32\\lib\\site-packages\\PyQt5\\Qt5\\plugins\\platforms\\qminimal.dll',
   'BINARY'),
  ('PyQt5\\Qt5\\plugins\\styles\\qwindowsvistastyle.dll',
   'C:\\users\\riccardo\\Local Settings\\Application '
   'Data\\Programs\\Python\\Python39-32\\lib\\site-packages\\PyQt5\\Qt5\\plugins\\styles\\qwindowsvistastyle.dll',
   'BINARY'),
  ('PyQt5\\Qt5\\plugins\\imageformats\\qtiff.dll',
   'C:\\users\\riccardo\\Local Settings\\Application '
   'Data\\Programs\\Python\\Python39-32\\lib\\site-packages\\PyQt5\\Qt5\\plugins\\imageformats\\qtiff.dll',
   'BINARY'),
  ('PyQt5\\Qt5\\plugins\\platformthemes\\qxdgdesktopportal.dll',
   'C:\\users\\riccardo\\Local Settings\\Application '
   'Data\\Programs\\Python\\Python39-32\\lib\\site-packages\\PyQt5\\Qt5\\plugins\\platformthemes\\qxdgdesktopportal.dll',
   'BINARY'),
  ('_lzma',
   'C:\\users\\riccardo\\Local Settings\\Application '
   'Data\\Programs\\Python\\Python39-32\\DLLs\\_lzma.pyd',
   'EXTENSION'),
  ('_bz2',
   'C:\\users\\riccardo\\Local Settings\\Application '
   'Data\\Programs\\Python\\Python39-32\\DLLs\\_bz2.pyd',
   'EXTENSION'),
  ('unicodedata',
   'C:\\users\\riccardo\\Local Settings\\Application '
   'Data\\Programs\\Python\\Python39-32\\DLLs\\unicodedata.pyd',
   'EXTENSION'),
  ('select',
   'C:\\users\\riccardo\\Local Settings\\Application '
   'Data\\Programs\\Python\\Python39-32\\DLLs\\select.pyd',
   'EXTENSION'),
  ('_socket',
   'C:\\users\\riccardo\\Local Settings\\Application '
   'Data\\Programs\\Python\\Python39-32\\DLLs\\_socket.pyd',
   'EXTENSION'),
  ('_multiprocessing',
   'C:\\users\\riccardo\\Local Settings\\Application '
   'Data\\Programs\\Python\\Python39-32\\DLLs\\_multiprocessing.pyd',
   'EXTENSION'),
  ('pyexpat',
   'C:\\users\\riccardo\\Local Settings\\Application '
   'Data\\Programs\\Python\\Python39-32\\DLLs\\pyexpat.pyd',
   'EXTENSION'),
  ('_ssl',
   'C:\\users\\riccardo\\Local Settings\\Application '
   'Data\\Programs\\Python\\Python39-32\\DLLs\\_ssl.pyd',
   'EXTENSION'),
  ('_hashlib',
   'C:\\users\\riccardo\\Local Settings\\Application '
   'Data\\Programs\\Python\\Python39-32\\DLLs\\_hashlib.pyd',
   'EXTENSION'),
  ('_decimal',
   'C:\\users\\riccardo\\Local Settings\\Application '
   'Data\\Programs\\Python\\Python39-32\\DLLs\\_decimal.pyd',
   'EXTENSION'),
  ('_overlapped',
   'C:\\users\\riccardo\\Local Settings\\Application '
   'Data\\Programs\\Python\\Python39-32\\DLLs\\_overlapped.pyd',
   'EXTENSION'),
  ('_asyncio',
   'C:\\users\\riccardo\\Local Settings\\Application '
   'Data\\Programs\\Python\\Python39-32\\DLLs\\_asyncio.pyd',
   'EXTENSION'),
  ('_queue',
   'C:\\users\\riccardo\\Local Settings\\Application '
   'Data\\Programs\\Python\\Python39-32\\DLLs\\_queue.pyd',
   'EXTENSION'),
  ('_ctypes',
   'C:\\users\\riccardo\\Local Settings\\Application '
   'Data\\Programs\\Python\\Python39-32\\DLLs\\_ctypes.pyd',
   'EXTENSION'),
  ('PyQt5.sip',
   'C:\\users\\riccardo\\Local Settings\\Application '
   'Data\\Programs\\Python\\Python39-32\\lib\\site-packages\\PyQt5\\sip.cp39-win32.pyd',
   'EXTENSION'),
  ('PyQt5.QtWidgets',
   'C:\\users\\riccardo\\Local Settings\\Application '
   'Data\\Programs\\Python\\Python39-32\\lib\\site-packages\\PyQt5\\QtWidgets.pyd',
   'EXTENSION'),
  ('PyQt5.QtGui',
   'C:\\users\\riccardo\\Local Settings\\Application '
   'Data\\Programs\\Python\\Python39-32\\lib\\site-packages\\PyQt5\\QtGui.pyd',
   'EXTENSION'),
  ('PyQt5.QtCore',
   'C:\\users\\riccardo\\Local Settings\\Application '
   'Data\\Programs\\Python\\Python39-32\\lib\\site-packages\\PyQt5\\QtCore.pyd',
   'EXTENSION'),
  ('api-ms-win-crt-utility-l1-1-0.dll',
   'C:\\windows\\system32\\api-ms-win-crt-utility-l1-1-0.dll',
   'BINARY'),
  ('Qt5Core.dll',
   'C:\\users\\riccardo\\Local Settings\\Application '
   'Data\\Programs\\Python\\Python39-32\\lib\\site-packages\\PyQt5\\Qt5\\bin\\Qt5Core.dll',
   'BINARY'),
  ('Qt5Gui.dll',
   'C:\\users\\riccardo\\Local Settings\\Application '
   'Data\\Programs\\Python\\Python39-32\\lib\\site-packages\\PyQt5\\Qt5\\bin\\Qt5Gui.dll',
   'BINARY'),
  ('Qt5Svg.dll',
   'C:\\users\\riccardo\\Local Settings\\Application '
   'Data\\Programs\\Python\\Python39-32\\lib\\site-packages\\PyQt5\\Qt5\\bin\\Qt5Svg.dll',
   'BINARY'),
  ('MSVCP140.dll',
   'C:\\users\\riccardo\\Local Settings\\Application '
   'Data\\Programs\\Python\\Python39-32\\lib\\site-packages\\PyQt5\\Qt5\\bin\\MSVCP140.dll',
   'BINARY'),
  ('Qt5Network.dll',
   'C:\\users\\riccardo\\Local Settings\\Application '
   'Data\\Programs\\Python\\Python39-32\\lib\\site-packages\\PyQt5\\Qt5\\bin\\Qt5Network.dll',
   'BINARY'),
  ('Qt5Quick.dll',
   'C:\\users\\riccardo\\Local Settings\\Application '
   'Data\\Programs\\Python\\Python39-32\\lib\\site-packages\\PyQt5\\Qt5\\bin\\Qt5Quick.dll',
   'BINARY'),
  ('Qt5WebSockets.dll',
   'C:\\users\\riccardo\\Local Settings\\Application '
   'Data\\Programs\\Python\\Python39-32\\lib\\site-packages\\PyQt5\\Qt5\\bin\\Qt5WebSockets.dll',
   'BINARY'),
  ('Qt5Widgets.dll',
   'C:\\users\\riccardo\\Local Settings\\Application '
   'Data\\Programs\\Python\\Python39-32\\lib\\site-packages\\PyQt5\\Qt5\\bin\\Qt5Widgets.dll',
   'BINARY'),
  ('Qt5DBus.dll',
   'C:\\users\\riccardo\\Local Settings\\Application '
   'Data\\Programs\\Python\\Python39-32\\lib\\site-packages\\PyQt5\\Qt5\\bin\\Qt5DBus.dll',
   'BINARY'),
  ('libssl-1_1.dll',
   'C:\\users\\riccardo\\Local Settings\\Application '
   'Data\\Programs\\Python\\Python39-32\\DLLs\\libssl-1_1.dll',
   'BINARY'),
  ('libcrypto-1_1.dll',
   'C:\\users\\riccardo\\Local Settings\\Application '
   'Data\\Programs\\Python\\Python39-32\\DLLs\\libcrypto-1_1.dll',
   'BINARY'),
  ('libffi-7.dll',
   'C:\\users\\riccardo\\Local Settings\\Application '
   'Data\\Programs\\Python\\Python39-32\\DLLs\\libffi-7.dll',
   'BINARY'),
  ('python3.dll',
   'C:\\users\\riccardo\\Local Settings\\Application '
   'Data\\Programs\\Python\\Python39-32\\python3.dll',
   'BINARY'),
  ('MSVCP140_1.dll',
   'C:\\users\\riccardo\\Local Settings\\Application '
   'Data\\Programs\\Python\\Python39-32\\lib\\site-packages\\PyQt5\\Qt5\\bin\\MSVCP140_1.dll',
   'BINARY'),
  ('Qt5Qml.dll',
   'C:\\users\\riccardo\\Local Settings\\Application '
   'Data\\Programs\\Python\\Python39-32\\lib\\site-packages\\PyQt5\\Qt5\\bin\\Qt5Qml.dll',
   'BINARY'),
  ('Qt5QmlModels.dll',
   'C:\\users\\riccardo\\Local Settings\\Application '
   'Data\\Programs\\Python\\Python39-32\\lib\\site-packages\\PyQt5\\Qt5\\bin\\Qt5QmlModels.dll',
   'BINARY'),
  ('immagini_pedine\\damone_blu.png',
   'Z:\\home\\riccardo\\Documents\\informatica\\pc\\programmi_python\\dama_grafica\\immagini_pedine\\damone_blu.png',
   'BINARY'),
  ('immagini_pedine\\casella_nera.png',
   'Z:\\home\\riccardo\\Documents\\informatica\\pc\\programmi_python\\dama_grafica\\immagini_pedine\\casella_nera.png',
   'BINARY'),
  ('immagini_pedine\\pedina_blu.png',
   'Z:\\home\\riccardo\\Documents\\informatica\\pc\\programmi_python\\dama_grafica\\immagini_pedine\\pedina_blu.png',
   'BINARY'),
  ('immagini_pedine\\damone_blu_sel.png',
   'Z:\\home\\riccardo\\Documents\\informatica\\pc\\programmi_python\\dama_grafica\\immagini_pedine\\damone_blu_sel.png',
   'BINARY'),
  ('immagini_pedine\\pedina_rossa.png',
   'Z:\\home\\riccardo\\Documents\\informatica\\pc\\programmi_python\\dama_grafica\\immagini_pedine\\pedina_rossa.png',
   'BINARY'),
  ('immagini_pedine\\damone_rosso_sel.png',
   'Z:\\home\\riccardo\\Documents\\informatica\\pc\\programmi_python\\dama_grafica\\immagini_pedine\\damone_rosso_sel.png',
   'BINARY'),
  ('immagini_pedine\\icona_vuota.png',
   'Z:\\home\\riccardo\\Documents\\informatica\\pc\\programmi_python\\dama_grafica\\immagini_pedine\\icona_vuota.png',
   'BINARY'),
  ('immagini_pedine\\immagine_dama.xcf',
   'Z:\\home\\riccardo\\Documents\\informatica\\pc\\programmi_python\\dama_grafica\\immagini_pedine\\immagine_dama.xcf',
   'BINARY'),
  ('immagini_pedine\\pedina_rossa_sel.png',
   'Z:\\home\\riccardo\\Documents\\informatica\\pc\\programmi_python\\dama_grafica\\immagini_pedine\\pedina_rossa_sel.png',
   'BINARY'),
  ('immagini_pedine\\pedina_blu_sel.png',
   'Z:\\home\\riccardo\\Documents\\informatica\\pc\\programmi_python\\dama_grafica\\immagini_pedine\\pedina_blu_sel.png',
   'BINARY'),
  ('immagini_pedine\\damone_rosso.png',
   'Z:\\home\\riccardo\\Documents\\informatica\\pc\\programmi_python\\dama_grafica\\immagini_pedine\\damone_rosso.png',
   'BINARY'),
  ('immagini_pedine\\icona_vuota_sel.png',
   'Z:\\home\\riccardo\\Documents\\informatica\\pc\\programmi_python\\dama_grafica\\immagini_pedine\\icona_vuota_sel.png',
   'BINARY'),
  ('base_library.zip',
   'Z:\\home\\riccardo\\Documents\\informatica\\pc\\programmi_python\\dama_grafica\\build\\dama_profondita\\base_library.zip',
   'DATA'),
  ('PyQt5\\Qt5\\translations\\qtbase_ar.qm',
   'C:\\users\\riccardo\\Local Settings\\Application '
   'Data\\Programs\\Python\\Python39-32\\lib\\site-packages\\PyQt5\\Qt5\\translations\\qtbase_ar.qm',
   'DATA'),
  ('PyQt5\\Qt5\\translations\\qtbase_ko.qm',
   'C:\\users\\riccardo\\Local Settings\\Application '
   'Data\\Programs\\Python\\Python39-32\\lib\\site-packages\\PyQt5\\Qt5\\translations\\qtbase_ko.qm',
   'DATA'),
  ('PyQt5\\Qt5\\translations\\qtbase_it.qm',
   'C:\\users\\riccardo\\Local Settings\\Application '
   'Data\\Programs\\Python\\Python39-32\\lib\\site-packages\\PyQt5\\Qt5\\translations\\qtbase_it.qm',
   'DATA'),
  ('PyQt5\\Qt5\\translations\\qtbase_hu.qm',
   'C:\\users\\riccardo\\Local Settings\\Application '
   'Data\\Programs\\Python\\Python39-32\\lib\\site-packages\\PyQt5\\Qt5\\translations\\qtbase_hu.qm',
   'DATA'),
  ('PyQt5\\Qt5\\translations\\qtbase_en.qm',
   'C:\\users\\riccardo\\Local Settings\\Application '
   'Data\\Programs\\Python\\Python39-32\\lib\\site-packages\\PyQt5\\Qt5\\translations\\qtbase_en.qm',
   'DATA'),
  ('PyQt5\\Qt5\\translations\\qtbase_tr.qm',
   'C:\\users\\riccardo\\Local Settings\\Application '
   'Data\\Programs\\Python\\Python39-32\\lib\\site-packages\\PyQt5\\Qt5\\translations\\qtbase_tr.qm',
   'DATA'),
  ('PyQt5\\Qt5\\translations\\qtbase_ca.qm',
   'C:\\users\\riccardo\\Local Settings\\Application '
   'Data\\Programs\\Python\\Python39-32\\lib\\site-packages\\PyQt5\\Qt5\\translations\\qtbase_ca.qm',
   'DATA'),
  ('PyQt5\\Qt5\\translations\\qtbase_uk.qm',
   'C:\\users\\riccardo\\Local Settings\\Application '
   'Data\\Programs\\Python\\Python39-32\\lib\\site-packages\\PyQt5\\Qt5\\translations\\qtbase_uk.qm',
   'DATA'),
  ('PyQt5\\Qt5\\translations\\qtbase_he.qm',
   'C:\\users\\riccardo\\Local Settings\\Application '
   'Data\\Programs\\Python\\Python39-32\\lib\\site-packages\\PyQt5\\Qt5\\translations\\qtbase_he.qm',
   'DATA'),
  ('PyQt5\\Qt5\\translations\\qtbase_ru.qm',
   'C:\\users\\riccardo\\Local Settings\\Application '
   'Data\\Programs\\Python\\Python39-32\\lib\\site-packages\\PyQt5\\Qt5\\translations\\qtbase_ru.qm',
   'DATA'),
  ('PyQt5\\Qt5\\translations\\qtbase_fr.qm',
   'C:\\users\\riccardo\\Local Settings\\Application '
   'Data\\Programs\\Python\\Python39-32\\lib\\site-packages\\PyQt5\\Qt5\\translations\\qtbase_fr.qm',
   'DATA'),
  ('PyQt5\\Qt5\\translations\\qtbase_es.qm',
   'C:\\users\\riccardo\\Local Settings\\Application '
   'Data\\Programs\\Python\\Python39-32\\lib\\site-packages\\PyQt5\\Qt5\\translations\\qtbase_es.qm',
   'DATA'),
  ('PyQt5\\Qt5\\translations\\qtbase_fi.qm',
   'C:\\users\\riccardo\\Local Settings\\Application '
   'Data\\Programs\\Python\\Python39-32\\lib\\site-packages\\PyQt5\\Qt5\\translations\\qtbase_fi.qm',
   'DATA'),
  ('PyQt5\\Qt5\\translations\\qtbase_sk.qm',
   'C:\\users\\riccardo\\Local Settings\\Application '
   'Data\\Programs\\Python\\Python39-32\\lib\\site-packages\\PyQt5\\Qt5\\translations\\qtbase_sk.qm',
   'DATA'),
  ('PyQt5\\Qt5\\translations\\qtbase_pl.qm',
   'C:\\users\\riccardo\\Local Settings\\Application '
   'Data\\Programs\\Python\\Python39-32\\lib\\site-packages\\PyQt5\\Qt5\\translations\\qtbase_pl.qm',
   'DATA'),
  ('PyQt5\\Qt5\\translations\\qtbase_bg.qm',
   'C:\\users\\riccardo\\Local Settings\\Application '
   'Data\\Programs\\Python\\Python39-32\\lib\\site-packages\\PyQt5\\Qt5\\translations\\qtbase_bg.qm',
   'DATA'),
  ('PyQt5\\Qt5\\translations\\qtbase_da.qm',
   'C:\\users\\riccardo\\Local Settings\\Application '
   'Data\\Programs\\Python\\Python39-32\\lib\\site-packages\\PyQt5\\Qt5\\translations\\qtbase_da.qm',
   'DATA'),
  ('PyQt5\\Qt5\\translations\\qtbase_zh_TW.qm',
   'C:\\users\\riccardo\\Local Settings\\Application '
   'Data\\Programs\\Python\\Python39-32\\lib\\site-packages\\PyQt5\\Qt5\\translations\\qtbase_zh_TW.qm',
   'DATA'),
  ('PyQt5\\Qt5\\translations\\qtbase_gd.qm',
   'C:\\users\\riccardo\\Local Settings\\Application '
   'Data\\Programs\\Python\\Python39-32\\lib\\site-packages\\PyQt5\\Qt5\\translations\\qtbase_gd.qm',
   'DATA'),
  ('PyQt5\\Qt5\\translations\\qtbase_lv.qm',
   'C:\\users\\riccardo\\Local Settings\\Application '
   'Data\\Programs\\Python\\Python39-32\\lib\\site-packages\\PyQt5\\Qt5\\translations\\qtbase_lv.qm',
   'DATA'),
  ('PyQt5\\Qt5\\translations\\qtbase_cs.qm',
   'C:\\users\\riccardo\\Local Settings\\Application '
   'Data\\Programs\\Python\\Python39-32\\lib\\site-packages\\PyQt5\\Qt5\\translations\\qtbase_cs.qm',
   'DATA'),
  ('PyQt5\\Qt5\\translations\\qtbase_ja.qm',
   'C:\\users\\riccardo\\Local Settings\\Application '
   'Data\\Programs\\Python\\Python39-32\\lib\\site-packages\\PyQt5\\Qt5\\translations\\qtbase_ja.qm',
   'DATA'),
  ('PyQt5\\Qt5\\translations\\qtbase_de.qm',
   'C:\\users\\riccardo\\Local Settings\\Application '
   'Data\\Programs\\Python\\Python39-32\\lib\\site-packages\\PyQt5\\Qt5\\translations\\qtbase_de.qm',
   'DATA'),
  ('dama_profondita.exe.manifest',
   'Z:\\home\\riccardo\\Documents\\informatica\\pc\\programmi_python\\dama_grafica\\build\\dama_profondita\\dama_profondita.exe.manifest',
   'BINARY'),
  ('pyi-windows-manifest-filename dama_profondita.exe.manifest', '', 'OPTION')],
 [],
 False,
 False,
 1630321735,
 [('runw.exe',
   'C:\\users\\riccardo\\Local Settings\\Application '
   'Data\\Programs\\Python\\Python39-32\\lib\\site-packages\\PyInstaller\\bootloader\\Windows-32bit\\runw.exe',
   'EXECUTABLE')])
